﻿
DisplayName "Navy Headquarters"



EVENT   1
 PAGE   1
  250(bytes(0x04,0x08,0x6f,0x3a,0x0c,0x52,0x50,0x47,0x3a,0x3a,0x53,0x45,0x08,0x3a,0x0a,0x40,0x6e,0x61,0x6d,0x65,0x49,0x22,0x09,0x4d,0x6f,0x76,0x65,0x06,0x3a,0x06,0x45,0x54,0x3a,0x0b,0x40,0x70,0x69,0x74,0x63,0x68,0x69,0x69,0x3a,0x0c,0x40,0x76,0x6f,0x6c,0x75,0x6d,0x65,0x69,0x55))
  TeleportPlayer(0,2,335,240,0,0)
  0()



EVENT   2
 PAGE   1
  250(bytes(0x04,0x08,0x6f,0x3a,0x0c,0x52,0x50,0x47,0x3a,0x3a,0x53,0x45,0x08,0x3a,0x0a,0x40,0x6e,0x61,0x6d,0x65,0x49,0x22,0x0b,0x45,0x61,0x72,0x74,0x68,0x34,0x06,0x3a,0x06,0x45,0x54,0x3a,0x0b,0x40,0x70,0x69,0x74,0x63,0x68,0x69,0x69,0x3a,0x0c,0x40,0x76,0x6f,0x6c,0x75,0x6d,0x65,0x69,0x55))
  205(0,bytes(0x04,0x08,0x6f,0x3a,0x13,0x52,0x50,0x47,0x3a,0x3a,0x4d,0x6f,0x76,0x65,0x52,0x6f,0x75,0x74,0x65,0x09,0x3a,0x0c,0x40,0x72,0x65,0x70,0x65,0x61,0x74,0x46,0x3a,0x0f,0x40,0x73,0x6b,0x69,0x70,0x70,0x61,0x62,0x6c,0x65,0x46,0x3a,0x0a,0x40,0x77,0x61,0x69,0x74,0x54,0x3a,0x0a,0x40,0x6c,0x69,0x73,0x74,0x5b,0x0c,0x6f,0x3a,0x15,0x52,0x50,0x47,0x3a,0x3a,0x4d,0x6f,0x76,0x65,0x43,0x6f,0x6d,0x6d,0x61,0x6e,0x64,0x07,0x3a,0x0a,0x40,0x63,0x6f,0x64,0x65,0x69,0x16,0x3a,0x10,0x40,0x70,0x61,0x72,0x61,0x6d,0x65,0x74,0x65,0x72,0x73,0x5b,0x00,0x6f,0x3b,0x0a,0x07,0x3b,0x0b,0x69,0x14,0x3b,0x0c,0x5b,0x06,0x69,0x08,0x6f,0x3b,0x0a,0x07,0x3b,0x0b,0x69,0x17,0x3b,0x0c,0x5b,0x00,0x6f,0x3b,0x0a,0x07,0x3b,0x0b,0x69,0x14,0x3b,0x0c,0x5b,0x06,0x69,0x08,0x6f,0x3b,0x0a,0x07,0x3b,0x0b,0x69,0x18,0x3b,0x0c,0x5b,0x00,0x6f,0x3b,0x0a,0x07,0x3b,0x0b,0x69,0x2a,0x3b,0x0c,0x5b,0x00,0x6f,0x3b,0x0a,0x07,0x3b,0x0b,0x69,0x00,0x3b,0x0c,0x5b,0x00))
  205(-1,bytes(0x04,0x08,0x6f,0x3a,0x13,0x52,0x50,0x47,0x3a,0x3a,0x4d,0x6f,0x76,0x65,0x52,0x6f,0x75,0x74,0x65,0x09,0x3a,0x0c,0x40,0x72,0x65,0x70,0x65,0x61,0x74,0x46,0x3a,0x0f,0x40,0x73,0x6b,0x69,0x70,0x70,0x61,0x62,0x6c,0x65,0x54,0x3a,0x0a,0x40,0x77,0x61,0x69,0x74,0x54,0x3a,0x0a,0x40,0x6c,0x69,0x73,0x74,0x5b,0x07,0x6f,0x3a,0x15,0x52,0x50,0x47,0x3a,0x3a,0x4d,0x6f,0x76,0x65,0x43,0x6f,0x6d,0x6d,0x61,0x6e,0x64,0x07,0x3a,0x0a,0x40,0x63,0x6f,0x64,0x65,0x69,0x11,0x3a,0x10,0x40,0x70,0x61,0x72,0x61,0x6d,0x65,0x74,0x65,0x72,0x73,0x5b,0x00,0x6f,0x3b,0x0a,0x07,0x3b,0x0b,0x69,0x00,0x3b,0x0c,0x5b,0x00))
  250(bytes(0x04,0x08,0x6f,0x3a,0x0c,0x52,0x50,0x47,0x3a,0x3a,0x53,0x45,0x08,0x3a,0x0a,0x40,0x6e,0x61,0x6d,0x65,0x49,0x22,0x09,0x4d,0x6f,0x76,0x65,0x06,0x3a,0x06,0x45,0x54,0x3a,0x0b,0x40,0x70,0x69,0x74,0x63,0x68,0x69,0x69,0x3a,0x0c,0x40,0x76,0x6f,0x6c,0x75,0x6d,0x65,0x69,0x55))
  TeleportPlayer(0,280,19,56,0,0)
  0()



EVENT   3
 PAGE   1
  0()



EVENT   4
 PAGE   1
  0()



EVENT   5
 PAGE   1
  0()



EVENT   6
 PAGE   1
  0()



EVENT   7
 PAGE   1
  250(bytes(0x04,0x08,0x6f,0x3a,0x0c,0x52,0x50,0x47,0x3a,0x3a,0x53,0x45,0x08,0x3a,0x0a,0x40,0x6e,0x61,0x6d,0x65,0x49,0x22,0x09,0x4d,0x6f,0x76,0x65,0x06,0x3a,0x06,0x45,0x54,0x3a,0x0b,0x40,0x70,0x69,0x74,0x63,0x68,0x69,0x69,0x3a,0x0c,0x40,0x76,0x6f,0x6c,0x75,0x6d,0x65,0x69,0x55))
  TeleportPlayer(0,2,335,240,0,0)
  0()



EVENT   8
 PAGE   1
  250(bytes(0x04,0x08,0x6f,0x3a,0x0c,0x52,0x50,0x47,0x3a,0x3a,0x53,0x45,0x08,0x3a,0x0a,0x40,0x6e,0x61,0x6d,0x65,0x49,0x22,0x09,0x4d,0x6f,0x76,0x65,0x06,0x3a,0x06,0x45,0x54,0x3a,0x0b,0x40,0x70,0x69,0x74,0x63,0x68,0x69,0x69,0x3a,0x0c,0x40,0x76,0x6f,0x6c,0x75,0x6d,0x65,0x69,0x55))
  TeleportPlayer(0,2,335,240,0,0)
  0()



EVENT   9
 PAGE   1
  250(bytes(0x04,0x08,0x6f,0x3a,0x0c,0x52,0x50,0x47,0x3a,0x3a,0x53,0x45,0x08,0x3a,0x0a,0x40,0x6e,0x61,0x6d,0x65,0x49,0x22,0x09,0x4d,0x6f,0x76,0x65,0x06,0x3a,0x06,0x45,0x54,0x3a,0x0b,0x40,0x70,0x69,0x74,0x63,0x68,0x69,0x69,0x3a,0x0c,0x40,0x76,0x6f,0x6c,0x75,0x6d,0x65,0x69,0x55))
  TeleportPlayer(0,2,335,240,0,0)
  0()



EVENT   10
 PAGE   1
  250(bytes(0x04,0x08,0x6f,0x3a,0x0c,0x52,0x50,0x47,0x3a,0x3a,0x53,0x45,0x08,0x3a,0x0a,0x40,0x6e,0x61,0x6d,0x65,0x49,0x22,0x09,0x4d,0x6f,0x76,0x65,0x06,0x3a,0x06,0x45,0x54,0x3a,0x0b,0x40,0x70,0x69,0x74,0x63,0x68,0x69,0x69,0x3a,0x0c,0x40,0x76,0x6f,0x6c,0x75,0x6d,0x65,0x69,0x55))
  TeleportPlayer(0,2,335,240,0,0)
  0()



EVENT   11
 PAGE   1
  ShowMessageFace("tatunoko_k_fc1",1,0,2,1)
  ShowMessage("\\n<Sea Horse Marine>Uooh♪　Uaaah♪")
  355("actor_label_jump")
  EndEventProcessing()
  DefineLabel("59")
  ShowMessageFace("mdg_fc1",0,0,2,2)
  ShowMessage("\\n<Ragora>I wonder if she's taking a break?\nI want to sing along...")
  EndEventProcessing()
  DefineLabel("155")
  ShowMessageFace("saki_fc1",0,0,2,3)
  ShowMessage("\\n<Saki>Maybe we could do a sea live next time...?")
  EndEventProcessing()
  0()
 PAGE   2
  // condition: variable 1050 >= 7
  0()



EVENT   12
 PAGE   1
  0()



EVENT   13
 PAGE   1
  0()
 PAGE   2
  // condition: variable 1050 >= 9
  0()



EVENT   14
 PAGE   1
  // condition: variable 1050 >= 5
  0()
 PAGE   2
  // condition: switch 2148 is ON
  0()



EVENT   15
 PAGE   1
  ShowMessageFace("tatunoko_k_fc1",0,0,2,1)
  ShowMessage("\\n<Sea Horse Marine>This is the ship to Port Marle.\nDo you want to board?")
  ShowChoices(strings("Board the ship","Stay here"),2)
  IfPlayerPicksChoice(0,null)
   ShowMessageFace("tatunoko_k_fc1",1,0,2,2)
   ShowMessage("\\n<Sea Horse Marine>Let's shove off!")
   221()
   250(bytes(0x04,0x08,0x6f,0x3a,0x0c,0x52,0x50,0x47,0x3a,0x3a,0x53,0x45,0x08,0x3a,0x0a,0x40,0x6e,0x61,0x6d,0x65,0x49,0x22,0x0b,0x57,0x61,0x74,0x65,0x72,0x31,0x06,0x3a,0x06,0x45,0x54,0x3a,0x0b,0x40,0x70,0x69,0x74,0x63,0x68,0x69,0x69,0x3a,0x0c,0x40,0x76,0x6f,0x6c,0x75,0x6d,0x65,0x69,0x55))
   Wait(60)
   TeleportPlayer(0,39,52,47,2,2)
   222()
   EndEventProcessing()
   0()
  IfPlayerPicksChoice(1,null)
   EndEventProcessing()
   0()
  404()
  0()



EVENT   16
 PAGE   1
  If(1,1050,0,3,0)
   ShowMessageFace("umiusi_k_fc1",0,0,2,1)
   ShowMessage("\\n<Slug Marine>This ship is currently being prepped for duty. Non-military personnel please keep your distance.")
   If(0,4,0)
    ShowMessageFace("alice_fc5",0,0,2,2)
    ShowMessage("\\n<Alice>It looks like it's being armed to the teeth... Are they going pirate hunting?")
    0()
   EndIf()
   If(0,5,0)
    ShowMessageFace("iriasu_fc4",0,0,2,3)
    ShowMessage("\\n<Ilias>That ship is armed to the teeth. It appears they're going pirate hunting.")
    0()
   EndIf()
   EndEventProcessing()
   0()
  EndIf()
  If(1,1050,0,5,0)
   PictureDisplay(5,"80_umiusi_k_st01",0,0,0,0,100,100,0,0)
   PictureMove(5,null,0,0,0,0,100,100,255,0,30,true)
   ShowMessageFace("umiusi_k_fc1",0,0,2,4)
   ShowMessage("\\n<Slug Marine>You're the new members of the operation to capture the Fishy Pirates, correct? We received orders from the admiral.")
   ShowMessageFace("umiusi_k_fc1",0,0,2,5)
   ShowMessage("\\n<Slug Marine>We aren't ready to depart, though. Please report back shortly.")
   If(0,4,0)
    ShowMessageFace("alice_fc5",0,0,2,6)
    ShowMessage("\\n<Alice>Hmm, we need to kill some time until then... On that note, maybe we shouldn't ignore that dog from earlier?")
    0()
   EndIf()
   If(0,5,0)
    ShowMessageFace("iriasu_fc4",2,0,2,7)
    ShowMessage("\\n<Ilias>Forcing me to wait is a disgrace.\nSpeaking of waiting, that mangy cur who accosted us earlier...")
    0()
   EndIf()
   PictureClear(5)
   EndEventProcessing()
   0()
  EndIf()
  If(1,1050,0,6,0)
   PictureDisplay(5,"80_umiusi_k_st01",0,0,0,0,100,100,0,0)
   PictureMove(5,null,0,0,0,0,100,100,255,0,30,true)
   ShowMessageFace("umiusi_k_fc1",0,0,2,8)
   ShowMessage("\\n<Slug Marine>You're the new members of the operation to capture the Fishy Pirates, correct? We received orders from the admiral.")
   ShowMessageFace("umiusi_k_fc1",0,0,2,9)
   ShowMessage("\\n<Slug Marine>Are you fully prepared to ship out? The operation could be a long one. If you're ready, get on board!")
   If(1,1050,0,6,0)
    If(0,4,0)
     ShowMessageFace("alice_fc5",0,0,2,10)
     ShowMessage("\\n<Alice>Joining this operation means we'll be cooperating with the navy. Don't forget that will mean making enemies of the pirates.")
     0()
    EndIf()
    If(0,5,0)
     ShowMessageFace("iriasu_fc4",0,0,2,11)
     ShowMessage("\\n<Ilias>The pirates will resent us for cooperating with the navy. Are you prepared for that?")
     0()
    EndIf()
    0()
   EndIf()
   If(4,156,0)
    ShowMessageFace("d_fighter_fc1",3,0,2,12)
    ShowMessage("\\n<Regina>I don't care if some outlaws hate me! Come on, let's sink those pirates!")
    0()
   EndIf()
   ShowChoices(strings("Cooperate with the navy","Reconsider"),0)
   IfPlayerPicksChoice(0,null)
    ShowMessageFace("umiusi_k_fc1",0,0,2,13)
    ShowMessage("\\n<Slug Marine>I received word from the admiral. She says it's okay for you to take one of the seahorses with you.")
    ShowMessageFace("umiusi_k_fc1",0,0,2,14)
    ShowMessage("\\n<Slug Marine>Hey, you over there! The seahorse who's singing! Want to come with us?!")
    PictureClear(5)
    Wait(60)
    205(11,bytes(0x04,0x08,0x6f,0x3a,0x13,0x52,0x50,0x47,0x3a,0x3a,0x4d,0x6f,0x76,0x65,0x52,0x6f,0x75,0x74,0x65,0x09,0x3a,0x0c,0x40,0x72,0x65,0x70,0x65,0x61,0x74,0x46,0x3a,0x0f,0x40,0x73,0x6b,0x69,0x70,0x70,0x61,0x62,0x6c,0x65,0x46,0x3a,0x0a,0x40,0x77,0x61,0x69,0x74,0x54,0x3a,0x0a,0x40,0x6c,0x69,0x73,0x74,0x5b,0x08,0x6f,0x3a,0x15,0x52,0x50,0x47,0x3a,0x3a,0x4d,0x6f,0x76,0x65,0x43,0x6f,0x6d,0x6d,0x61,0x6e,0x64,0x07,0x3a,0x0a,0x40,0x63,0x6f,0x64,0x65,0x69,0x29,0x3a,0x10,0x40,0x70,0x61,0x72,0x61,0x6d,0x65,0x74,0x65,0x72,0x73,0x5b,0x00,0x6f,0x3b,0x0a,0x07,0x3b,0x0b,0x69,0x16,0x3b,0x0c,0x5b,0x00,0x6f,0x3b,0x0a,0x07,0x3b,0x0b,0x69,0x00,0x3b,0x0c,0x5b,0x00))
    Wait(60)
    PictureDisplay(5,"80_tatunoko_k_st02",0,0,0,0,100,100,0,0)
    PictureMove(5,null,0,0,0,0,100,100,255,0,30,true)
    ShowMessageFace("tatunoko_k_fc1",1,0,2,15)
    ShowMessage("\\n<Tatsuko>Huh? Where are you going?\nI don't know what's happening, but all right!")
    PictureClear(5)
    205(11,bytes(0x04,0x08,0x6f,0x3a,0x13,0x52,0x50,0x47,0x3a,0x3a,0x4d,0x6f,0x76,0x65,0x52,0x6f,0x75,0x74,0x65,0x09,0x3a,0x0c,0x40,0x72,0x65,0x70,0x65,0x61,0x74,0x46,0x3a,0x0f,0x40,0x73,0x6b,0x69,0x70,0x70,0x61,0x62,0x6c,0x65,0x46,0x3a,0x0a,0x40,0x77,0x61,0x69,0x74,0x54,0x3a,0x0a,0x40,0x6c,0x69,0x73,0x74,0x5b,0x07,0x6f,0x3a,0x15,0x52,0x50,0x47,0x3a,0x3a,0x4d,0x6f,0x76,0x65,0x43,0x6f,0x6d,0x6d,0x61,0x6e,0x64,0x07,0x3a,0x0a,0x40,0x63,0x6f,0x64,0x65,0x69,0x2c,0x3a,0x10,0x40,0x70,0x61,0x72,0x61,0x6d,0x65,0x74,0x65,0x72,0x73,0x5b,0x00,0x6f,0x3b,0x0a,0x07,0x3b,0x0b,0x69,0x00,0x3b,0x0c,0x5b,0x00))
    355("add_actor_ex(203)")
    249(bytes(0x04,0x08,0x6f,0x3a,0x0c,0x52,0x50,0x47,0x3a,0x3a,0x4d,0x45,0x08,0x3a,0x0a,0x40,0x6e,0x61,0x6d,0x65,0x49,0x22,0x0c,0x66,0x61,0x6e,0x66,0x61,0x6c,0x65,0x06,0x3a,0x06,0x45,0x54,0x3a,0x0b,0x40,0x70,0x69,0x74,0x63,0x68,0x69,0x69,0x3a,0x0c,0x40,0x76,0x6f,0x6c,0x75,0x6d,0x65,0x69,0x69))
    ShowMessageFace("",0,0,2,16)
    ShowMessage("Tatsuko joined the party!")
    Wait(60)
    PictureDisplay(5,"80_umiusi_k_st01",0,0,0,0,100,100,0,0)
    PictureMove(5,null,0,0,0,0,100,100,255,0,30,true)
    ShowMessageFace("umiusi_k_fc1",0,0,2,17)
    ShowMessage("\\n<Stacy>I shall accompany you as well.\nI'm not very experienced, but I look forward to fighting alongside you.")
    PictureClear(5)
    355("add_actor_ex(204)")
    249(bytes(0x04,0x08,0x6f,0x3a,0x0c,0x52,0x50,0x47,0x3a,0x3a,0x4d,0x45,0x08,0x3a,0x0a,0x40,0x6e,0x61,0x6d,0x65,0x49,0x22,0x0c,0x66,0x61,0x6e,0x66,0x61,0x6c,0x65,0x06,0x3a,0x06,0x45,0x54,0x3a,0x0b,0x40,0x70,0x69,0x74,0x63,0x68,0x69,0x69,0x3a,0x0c,0x40,0x76,0x6f,0x6c,0x75,0x6d,0x65,0x69,0x69))
    ShowMessageFace("",0,0,2,18)
    ShowMessage("Stacy joined the party!")
    Wait(60)
    ShowMessageFace("umiusi_k_fc1",0,0,2,19)
    ShowMessage("\\n<Stacy>Okay, let's shove off!\nOur target is the enemy vessel, the MS Fish!")
    If(0,4,0)
     ShowMessageFace("alice_fc5",0,0,2,20)
     ShowMessage("\\n<Alice>Never thought I'd be bringing pirates to justice, but since we agreed to do it, I won't be caught slacking off!")
     0()
    EndIf()
    If(0,5,0)
     ShowMessageFace("iriasu_fc4",0,0,2,21)
     ShowMessage("\\n<Ilias>Crushing pirates with my own hands? I'm giddy with excitement!")
     0()
    EndIf()
    If(4,529,0)
     ShowMessageFace("sara_fc1",1,0,2,22)
     ShowMessage("\\n<Sara>Okay, let's expose these pirates!")
     0()
    EndIf()
    If(4,129,0)
     ShowMessageFace("brunhild_fc1",0,0,2,23)
     ShowMessage("\\n<Hild>Commence pirate subjugation...")
     0()
    EndIf()
    ShowMessageFace("",0,0,2,24)
    ShowMessage("Luka's party boards the naval vessel!")
    ChangeSwitch(2148,2148,0)
    ChangeVariable(1050,1050,0,0,7)
    ChangeSwitch(100,100,0)
    ChangeVariable(1002,1002,0,0,21)
    221()
    250(bytes(0x04,0x08,0x6f,0x3a,0x0c,0x52,0x50,0x47,0x3a,0x3a,0x53,0x45,0x08,0x3a,0x0a,0x40,0x6e,0x61,0x6d,0x65,0x49,0x22,0x0b,0x57,0x61,0x74,0x65,0x72,0x31,0x06,0x3a,0x06,0x45,0x54,0x3a,0x0b,0x40,0x70,0x69,0x74,0x63,0x68,0x69,0x69,0x3a,0x0c,0x40,0x76,0x6f,0x6c,0x75,0x6d,0x65,0x69,0x55))
    Wait(60)
    ChangeSwitch(248,248,0)
    314(0,0)
    TeleportPlayer(0,685,15,20,4,2)
    222()
    EndEventProcessing()
    0()
   IfPlayerPicksChoice(1,null)
    PictureClear(5)
    EndEventProcessing()
    0()
   404()
   EndEventProcessing()
   0()
  EndIf()
  If(1,1050,0,8,0)
   ShowMessageFace("umiusi_k_fc1",0,0,2,25)
   ShowMessage("\\n<Stacy>Okay, let's shove off!")
   ShowMessageFace("",0,0,2,26)
   ShowMessage("Luka's party boards the naval vessel!")
   221()
   ChangeSwitch(100,100,0)
   ChangeVariable(1002,1002,0,0,22)
   250(bytes(0x04,0x08,0x6f,0x3a,0x0c,0x52,0x50,0x47,0x3a,0x3a,0x53,0x45,0x08,0x3a,0x0a,0x40,0x6e,0x61,0x6d,0x65,0x49,0x22,0x0b,0x57,0x61,0x74,0x65,0x72,0x31,0x06,0x3a,0x06,0x45,0x54,0x3a,0x0b,0x40,0x70,0x69,0x74,0x63,0x68,0x69,0x69,0x3a,0x0c,0x40,0x76,0x6f,0x6c,0x75,0x6d,0x65,0x69,0x55))
   Wait(60)
   TeleportPlayer(0,2,20,211,4,2)
   222()
   EndEventProcessing()
   0()
  EndIf()
  0()
 PAGE   2
  // condition: variable 1050 >= 9
  0()



EVENT   17
 PAGE   1
  // condition: variable 1050 >= 4
  205(0,bytes(0x04,0x08,0x6f,0x3a,0x13,0x52,0x50,0x47,0x3a,0x3a,0x4d,0x6f,0x76,0x65,0x52,0x6f,0x75,0x74,0x65,0x09,0x3a,0x0c,0x40,0x72,0x65,0x70,0x65,0x61,0x74,0x46,0x3a,0x0f,0x40,0x73,0x6b,0x69,0x70,0x70,0x61,0x62,0x6c,0x65,0x46,0x3a,0x0a,0x40,0x77,0x61,0x69,0x74,0x54,0x3a,0x0a,0x40,0x6c,0x69,0x73,0x74,0x5b,0x0a,0x6f,0x3a,0x15,0x52,0x50,0x47,0x3a,0x3a,0x4d,0x6f,0x76,0x65,0x43,0x6f,0x6d,0x6d,0x61,0x6e,0x64,0x07,0x3a,0x0a,0x40,0x63,0x6f,0x64,0x65,0x69,0x09,0x3a,0x10,0x40,0x70,0x61,0x72,0x61,0x6d,0x65,0x74,0x65,0x72,0x73,0x5b,0x00,0x6f,0x3b,0x0a,0x07,0x3b,0x0b,0x69,0x09,0x3b,0x0c,0x5b,0x00,0x6f,0x3b,0x0a,0x07,0x3b,0x0b,0x69,0x09,0x3b,0x0c,0x5b,0x00,0x6f,0x3b,0x0a,0x07,0x3b,0x0b,0x69,0x16,0x3b,0x0c,0x5b,0x00,0x6f,0x3b,0x0a,0x07,0x3b,0x0b,0x69,0x00,0x3b,0x0c,0x5b,0x00))
  205(-1,bytes(0x04,0x08,0x6f,0x3a,0x13,0x52,0x50,0x47,0x3a,0x3a,0x4d,0x6f,0x76,0x65,0x52,0x6f,0x75,0x74,0x65,0x09,0x3a,0x0c,0x40,0x72,0x65,0x70,0x65,0x61,0x74,0x46,0x3a,0x0f,0x40,0x73,0x6b,0x69,0x70,0x70,0x61,0x62,0x6c,0x65,0x46,0x3a,0x0a,0x40,0x77,0x61,0x69,0x74,0x54,0x3a,0x0a,0x40,0x6c,0x69,0x73,0x74,0x5b,0x07,0x6f,0x3a,0x15,0x52,0x50,0x47,0x3a,0x3a,0x4d,0x6f,0x76,0x65,0x43,0x6f,0x6d,0x6d,0x61,0x6e,0x64,0x07,0x3a,0x0a,0x40,0x63,0x6f,0x64,0x65,0x69,0x17,0x3a,0x10,0x40,0x70,0x61,0x72,0x61,0x6d,0x65,0x74,0x65,0x72,0x73,0x5b,0x00,0x6f,0x3b,0x0a,0x07,0x3b,0x0b,0x69,0x00,0x3b,0x0c,0x5b,0x00))
  Wait(60)
  PictureDisplay(5,"80_dog_st01",0,0,0,0,100,100,0,0)
  PictureMove(5,null,0,0,0,0,100,100,255,0,30,true)
  ShowMessageFace("dog_fc1",0,0,2,1)
  ShowMessage("\\n<Wow>Woof, woof!")
  If(0,6,0)
   ShowMessageFace("sonia_fc1",0,0,2,2)
   ShowMessage("\\n<Sonya>Hello there, little doggie. Can we help you?")
   0()
  Else()
   ShowMessageFace("ruka_fc1",0,0,2,3)
   ShowMessage("\\n<Luka>Huh? Can I help you?")
   0()
  EndIf()
  ShowMessageFace("dog_fc1",0,0,2,4)
  ShowMessage("\\n<Wow>Follow me! There's someone I want you to meet...")
  PictureClear(5)
  Wait(60)
  205(-1,bytes(0x04,0x08,0x6f,0x3a,0x13,0x52,0x50,0x47,0x3a,0x3a,0x4d,0x6f,0x76,0x65,0x52,0x6f,0x75,0x74,0x65,0x09,0x3a,0x0c,0x40,0x72,0x65,0x70,0x65,0x61,0x74,0x46,0x3a,0x0f,0x40,0x73,0x6b,0x69,0x70,0x70,0x61,0x62,0x6c,0x65,0x46,0x3a,0x0a,0x40,0x77,0x61,0x69,0x74,0x54,0x3a,0x0a,0x40,0x6c,0x69,0x73,0x74,0x5b,0x07,0x6f,0x3a,0x15,0x52,0x50,0x47,0x3a,0x3a,0x4d,0x6f,0x76,0x65,0x43,0x6f,0x6d,0x6d,0x61,0x6e,0x64,0x07,0x3a,0x0a,0x40,0x63,0x6f,0x64,0x65,0x69,0x15,0x3a,0x10,0x40,0x70,0x61,0x72,0x61,0x6d,0x65,0x74,0x65,0x72,0x73,0x5b,0x00,0x6f,0x3b,0x0a,0x07,0x3b,0x0b,0x69,0x00,0x3b,0x0c,0x5b,0x00))
  205(0,bytes(0x04,0x08,0x6f,0x3a,0x13,0x52,0x50,0x47,0x3a,0x3a,0x4d,0x6f,0x76,0x65,0x52,0x6f,0x75,0x74,0x65,0x09,0x3a,0x0c,0x40,0x72,0x65,0x70,0x65,0x61,0x74,0x46,0x3a,0x0f,0x40,0x73,0x6b,0x69,0x70,0x70,0x61,0x62,0x6c,0x65,0x46,0x3a,0x0a,0x40,0x77,0x61,0x69,0x74,0x54,0x3a,0x0a,0x40,0x6c,0x69,0x73,0x74,0x5b,0x15,0x6f,0x3a,0x15,0x52,0x50,0x47,0x3a,0x3a,0x4d,0x6f,0x76,0x65,0x43,0x6f,0x6d,0x6d,0x61,0x6e,0x64,0x07,0x3a,0x0a,0x40,0x63,0x6f,0x64,0x65,0x69,0x06,0x3a,0x10,0x40,0x70,0x61,0x72,0x61,0x6d,0x65,0x74,0x65,0x72,0x73,0x5b,0x00,0x6f,0x3b,0x0a,0x07,0x3b,0x0b,0x69,0x06,0x3b,0x0c,0x5b,0x00,0x6f,0x3b,0x0a,0x07,0x3b,0x0b,0x69,0x06,0x3b,0x0c,0x5b,0x00,0x6f,0x3b,0x0a,0x07,0x3b,0x0b,0x69,0x06,0x3b,0x0c,0x5b,0x00,0x6f,0x3b,0x0a,0x07,0x3b,0x0b,0x69,0x06,0x3b,0x0c,0x5b,0x00,0x6f,0x3b,0x0a,0x07,0x3b,0x0b,0x69,0x08,0x3b,0x0c,0x5b,0x00,0x6f,0x3b,0x0a,0x07,0x3b,0x0b,0x69,0x08,0x3b,0x0c,0x5b,0x00,0x6f,0x3b,0x0a,0x07,0x3b,0x0b,0x69,0x08,0x3b,0x0c,0x5b,0x00,0x6f,0x3b,0x0a,0x07,0x3b,0x0b,0x69,0x08,0x3b,0x0c,0x5b,0x00,0x6f,0x3b,0x0a,0x07,0x3b,0x0b,0x69,0x08,0x3b,0x0c,0x5b,0x00,0x6f,0x3b,0x0a,0x07,0x3b,0x0b,0x69,0x08,0x3b,0x0c,0x5b,0x00,0x6f,0x3b,0x0a,0x07,0x3b,0x0b,0x69,0x08,0x3b,0x0c,0x5b,0x00,0x6f,0x3b,0x0a,0x07,0x3b,0x0b,0x69,0x08,0x3b,0x0c,0x5b,0x00,0x6f,0x3b,0x0a,0x07,0x3b,0x0b,0x69,0x08,0x3b,0x0c,0x5b,0x00,0x6f,0x3b,0x0a,0x07,0x3b,0x0b,0x69,0x08,0x3b,0x0c,0x5b,0x00,0x6f,0x3b,0x0a,0x07,0x3b,0x0b,0x69,0x00,0x3b,0x0c,0x5b,0x00))
  ShowMessageFace("dog_fc1",0,0,2,5)
  ShowMessage("\\n<Wow>This way! This way!")
  If(4,53,0)
   ShowMessageFace("slime_fc1",0,0,2,6)
   ShowMessage("\\n<Lime>Where's the doggie going...?")
   0()
  EndIf()
  If(0,4,0)
   ShowMessageFace("alice_fc5",0,0,2,7)
   ShowMessage("\\n<Alice>I guess we should follow her and see who she wants us to meet.")
   0()
  EndIf()
  If(0,5,0)
   ShowMessageFace("iriasu_fc4",0,0,2,8)
   ShowMessage("\\n<Ilias>Leave that mangy cur alone.\nCome on, we have a stupid band of pirates to destroy!")
   0()
  EndIf()
  ChangeVariable(1050,1050,0,0,5)
  ChangeSwitch(100,100,1)
  0()
 PAGE   2
  // condition: variable 1050 >= 5
  0()



EVENT   18
 PAGE   1
  // condition: variable 1050 >= 5
  If(1,1050,0,5,0)
   ShowMessageFace("dog_fc1",4,0,2,1)
   ShowMessage("\\n<Wow>*sniff* *sniff*")
   EndEventProcessing()
   0()
  EndIf()
  If(1,1050,0,6,0)
   ShowMessageFace("dog_fc1",0,0,2,2)
   ShowMessage("\\n<Wow>Come with us!\nCome with us!")
   EndEventProcessing()
   0()
  EndIf()
  0()
 PAGE   2
  // condition: switch 2148 is ON
  0()



EVENT   19
 PAGE   1
  // condition: variable 1050 >= 5
  If(1,1050,0,5,0)
   PictureDisplay(5,"80_k_mermaid_st01",0,0,0,0,100,100,0,0)
   PictureMove(5,null,0,0,0,0,100,100,255,0,30,true)
   ShowMessageFace("k_mermaid_fc1",0,0,2,1)
   ShowMessage("\\n<Mermaid Pirate>Hey, hurry up and get on the boat! We gotta get out of here before the marines spot us!")
   If(4,144,0)
    ShowMessageFace("saboresu_fc1",1,0,2,2)
    ShowMessage("\\n<Sunny>Gulp, pirates!\nAre you scouts, by any chance?")
    0()
   EndIf()
   If(0,4,0)
    ShowMessageFace("alice_fc5",0,0,2,3)
    ShowMessage("\\n<Alice>Judging from appearances, you're a pirate... Where the hell do you plan to take us?")
    0()
   EndIf()
   If(0,5,0)
    ShowMessageFace("iriasu_fc4",2,0,2,4)
    ShowMessage("\\n<Ilias>Where, pray tell, do you intend to take us? If you're harboring evil intentions, I will grind your bones to dust.")
    0()
   EndIf()
   ShowMessageFace("k_mermaid_fc1",0,0,2,5)
   ShowMessage("\\n<Mermaid Pirate>The cap'n said she wants to meet'cha. Save the questions for her and hurry on board!")
   If(4,167,0)
    ShowMessageFace("lusia_fc1",2,0,2,6)
    ShowMessage("\\n<Lucia>I'd like to at least hear what she has to say...")
    0()
   EndIf()
   PictureClear(5)
   ShowMessageFace("",0,0,2,7)
   ShowMessage("Luka's party is herded onto the boat...")
   ChangeSwitch(100,100,0)
   221()
   250(bytes(0x04,0x08,0x6f,0x3a,0x0c,0x52,0x50,0x47,0x3a,0x3a,0x53,0x45,0x08,0x3a,0x0a,0x40,0x6e,0x61,0x6d,0x65,0x49,0x22,0x0b,0x57,0x61,0x74,0x65,0x72,0x31,0x06,0x3a,0x06,0x45,0x54,0x3a,0x0b,0x40,0x70,0x69,0x74,0x63,0x68,0x69,0x69,0x3a,0x0c,0x40,0x76,0x6f,0x6c,0x75,0x6d,0x65,0x69,0x55))
   Wait(60)
   TeleportPlayer(0,376,15,20,4,2)
   222()
   EndEventProcessing()
   0()
  EndIf()
  If(1,1050,0,6,0)
   If(1,1051,0,0,0)
    PictureDisplay(5,"80_k_mermaid_st01",0,0,0,0,100,100,0,0)
    PictureMove(5,null,0,0,0,0,100,100,255,0,30,true)
    ShowMessageFace("k_mermaid_fc1",0,0,2,8)
    ShowMessage("\\n<Mermaid Pirate>So you're really going to join us?! Should we head to the MS Fish right away?")
    ShowMessageFace("k_mermaid_fc1",0,0,2,9)
    ShowMessage("\\n<Mermaid Pirate>It's a long voyage to the Grand Pirate's Cave so you should finish up your preparations on land first.")
    If(0,4,0)
     ShowMessageFace("alice_fc5",0,0,2,10)
     ShowMessage("\\n<Alice>If we ally ourselves with the pirates, we'll antagonize the navy. Are you sure about this?")
     0()
    EndIf()
    If(0,5,0)
     ShowMessageFace("iriasu_fc4",2,0,2,11)
     ShowMessage("\\n<Ilias>Allying ourselves with the pirates will make enemies of the navy, you know. Are you really prepared for that?")
     0()
    EndIf()
    If(4,171,0)
     ShowMessageFace("lizardboss_fc1",0,0,2,12)
     ShowMessage("\\n<Miranda>Pirates are the way to go!\nPlaying by the rules isn't my style!")
     0()
    EndIf()
    ShowChoices(strings("Aid the Fishy Pirates","Reconsider"),0)
    IfPlayerPicksChoice(0,null)
     ChangeSwitch(2149,2149,0)
     ChangeVariable(1051,1051,0,0,1)
     ShowMessageFace("k_mermaid_fc1",0,0,2,13)
     ShowMessage("\\n<Mermaid Pirate>All right! To the MS Fish!")
     If(4,12,0)
      ShowMessageFace("sylph_fc1",2,0,2,14)
      ShowMessage("\\n<Sylph>Let's gooooooo!")
      0()
     EndIf()
     If(4,13,0)
      ShowMessageFace("gnome_fc1",0,0,2,15)
      ShowMessage("\\n<Gnome>......")
      0()
     EndIf()
     PictureClear(5)
     ShowMessageFace("",0,0,2,16)
     ShowMessage("Luka's party boards the boat!")
     ChangeSwitch(100,100,0)
     221()
     250(bytes(0x04,0x08,0x6f,0x3a,0x0c,0x52,0x50,0x47,0x3a,0x3a,0x53,0x45,0x08,0x3a,0x0a,0x40,0x6e,0x61,0x6d,0x65,0x49,0x22,0x0b,0x57,0x61,0x74,0x65,0x72,0x31,0x06,0x3a,0x06,0x45,0x54,0x3a,0x0b,0x40,0x70,0x69,0x74,0x63,0x68,0x69,0x69,0x3a,0x0c,0x40,0x76,0x6f,0x6c,0x75,0x6d,0x65,0x69,0x55))
     Wait(60)
     TeleportPlayer(0,376,15,20,4,2)
     222()
     EndEventProcessing()
     0()
    IfPlayerPicksChoice(1,null)
     PictureClear(5)
     EndEventProcessing()
     0()
    404()
    0()
   EndIf()
   If(1,1051,0,3,0)
    ShowMessageFace("k_mermaid_fc1",0,0,2,17)
    ShowMessage("\\n<Mermaid Pirate>All right, let's go!")
    PictureClear(5)
    ShowMessageFace("",0,0,2,18)
    ShowMessage("Luka's party is taken to the MS Fish!")
    221()
    250(bytes(0x04,0x08,0x6f,0x3a,0x0c,0x52,0x50,0x47,0x3a,0x3a,0x53,0x45,0x08,0x3a,0x0a,0x40,0x6e,0x61,0x6d,0x65,0x49,0x22,0x0b,0x57,0x61,0x74,0x65,0x72,0x31,0x06,0x3a,0x06,0x45,0x54,0x3a,0x0b,0x40,0x70,0x69,0x74,0x63,0x68,0x69,0x69,0x3a,0x0c,0x40,0x76,0x6f,0x6c,0x75,0x6d,0x65,0x69,0x55))
    Wait(60)
    TeleportPlayer(0,2,20,211,4,2)
    ChangeSwitch(100,100,0)
    ChangeVariable(1002,1002,0,0,22)
    222()
    EndEventProcessing()
    0()
   EndIf()
   0()
  EndIf()
  0()
 PAGE   2
  // condition: switch 2148 is ON
  0()



EVENT   20
 PAGE   1
  ShowMessageFace("tatunoko_k_fc1",2,0,2,1)
  ShowMessage("\\n<Sea Horse Marine>One sheep...\nTwo sheeps...")
  355("actor_label_jump")
  EndEventProcessing()
  DefineLabel("75")
  ShowMessageFace("hituzi_fc1",3,0,2,2)
  ShowMessage("\\n<Mary>One seahorse...\nTwo seahorses...")
  EndEventProcessing()
  0()



EVENT   21
 PAGE   1
  ShowMessageFace("tatunoko_k_fc1",2,0,2,1)
  ShowMessage("\\n<Sea Horse Marine>Zzzz...")
  355("actor_label_jump")
  EndEventProcessing()
  DefineLabel("82")
  ShowMessageFace("suzume_fc1",2,0,2,2)
  ShowMessage("\\n<Chirp>I wonder if we should wake her up...?")
  EndEventProcessing()
  DefineLabel("105")
  ShowMessageFace("mimic_fc1",0,0,2,3)
  ShowMessage("\\n<Minelli>I'm gonna eat her...")
  EndEventProcessing()
  0()



EVENT   22
 PAGE   1
  ChangeSelfSwitch("A",0)
  If(0,4,0)
   ShowMessageFace("alice_fc5",0,0,2,1)
   ShowMessage("\\n<Alice>I suppose we should go find the admiral.")
   ShowMessageFace("alice_fc5",0,0,2,2)
   ShowMessage("\\n<Alice>Though even if the admiral is a reasonable individual, I doubt she's going to give us passage for free.")
   0()
  EndIf()
  If(0,5,0)
   ShowMessageFace("iriasu_fc4",0,0,2,3)
   ShowMessage("\\n<Ilias>Now that we're here, let's go find the admiral. We must receive permission to sail to the Noah region by any means necessary.")
   ShowMessageFace("iriasu_fc4",2,0,2,4)
   ShowMessage("\\n<Ilias>I'd include brute force as an option, except that I'm not confident we're strong enough to compete with the admiral of the navy.")
   0()
  EndIf()
  If(4,66,0)
   ShowMessageFace("vgirl_fc1",0,0,2,5)
   ShowMessage("\\n<Vanilla>I hope we can get a ship without too much difficulty...")
   0()
  EndIf()
  If(4,171,0)
   ShowMessageFace("lizardboss_fc1",3,0,2,6)
   ShowMessage("\\n<Miranda>Talking is such a waste of time...\nWhy can't we just steal one of their ships?")
   0()
  EndIf()
  0()
 PAGE   2
  // condition: self-switch A is ON
  0()



EVENT   23
 PAGE   1
  ShowMessageFace("tatunoko_k_fc1",1,0,2,1)
  ShowMessage("\\n<Sea Horse Marine>I'm a gatekeeper!")
  0()



EVENT   24
 PAGE   1
  ShowMessageFace("tatunoko_k_fc1",0,0,2,1)
  ShowMessage("\\n<Sea Horse Marine>This is a small solitary island...\nEven if you go out, you can't get anywhere without a ship.")
  0()



EVENT   25
 PAGE   1
  ShowMessageFace("tatunoko_k_fc1",0,0,2,1)
  ShowMessage("\\n<Sea Horse Marine>Our Admiral is very strict.")
  ShowMessage("But sometimes, she can be very flexible.")
  ShowMessageFace("tatunoko_k_fc1",0,0,2,2)
  ShowMessage("\\n<Sea Horse Marine>She is acquainted with the Queens of the South and North Seas.")
  ShowMessage("The three of them are known as the Strongest Three of the Sea.")
  355("actor_label_jump")
  EndEventProcessing()
  DefineLabel("88")
  ShowMessageFace("jack_fc1",2,0,2,3)
  ShowMessage("\\n<Pumpkin>H-How scary...")
  EndEventProcessing()
  0()



EVENT   26
 PAGE   1
  If(0,2148,0)
   ShowMessageFace("tatunoko_k_fc1",0,0,2,1)
   ShowMessage("\\n<Sea Horse Marine>Nothing out of order!")
   EndEventProcessing()
   0()
  EndIf()
  If(1,1050,0,4,2)
   ShowMessageFace("tatunoko_k_fc1",0,0,2,2)
   ShowMessage("\\n<Sea Horse Marine>Nothing out of order!")
   EndEventProcessing()
   0()
  EndIf()
  If(1,1050,0,8,2)
   ShowMessageFace("tatunoko_k_fc1",1,0,2,3)
   ShowMessage("\\n<Sea Horse Marine>I got a meal from a kind dog!\nAnd all I had to do was to ignore that dubious boat!")
   355("actor_label_jump")
   EndEventProcessing()
   DefineLabel("103")
   ShowMessageFace("kamuro_fc1",0,0,2,4)
   ShowMessage("\\n<Kamuro>Security here... Is this okay?")
   EndEventProcessing()
   0()
  EndIf()
  If(1,1050,0,9,1)
   ShowMessageFace("tatunoko_k_fc1",1,0,2,5)
   ShowMessage("\\n<Sea Horse Marine>Nothing is ever out of order here!")
   EndEventProcessing()
   0()
  EndIf()
  0()



EVENT   27
 PAGE   1
  ShowMessageFace("tatunoko_k_fc1",0,0,2,1)
  ShowMessage("\\n<Sea Horse Marine>I'm patrolling the headquarters!")
  355("actor_label_jump")
  EndEventProcessing()
  DefineLabel("79")
  ShowMessageFace("nuruko_fc1",0,0,2,2)
  ShowMessage("\\n<Nuruko>.........")
  ShowMessageFace("tatunoko_k_fc1",1,0,2,3)
  ShowMessage("\\n<Sea Horse Marine>...There are mysterious things happening around here!")
  EndEventProcessing()
  DefineLabel("80")
  ShowMessageFace("orc_fc1",0,0,2,4)
  ShowMessage("\\n<Hip>Orcs are dangerous, we will raid this place.")
  EndEventProcessing()
  DefineLabel("133")
  ShowMessageFace("zonbe_fc3",3,0,2,5)
  ShowMessage("\\n<Zombies>Oooh...")
  ShowMessageFace("tatunoko_k_fc1",2,0,2,6)
  ShowMessage("\\n<Sea Horse Marine>Zombies are invading the headquarters...")
  ShowMessage("I'm just gonna ignore it...")
  If(4,41,0)
   ShowMessageFace("stein_fc2",0,0,2,7)
   ShowMessage("\\n<Promestein>This is a pattern of biohazard proportions...")
   0()
  EndIf()
  EndEventProcessing()
  DefineLabel("142")
  ShowMessageFace("bander_fc1",0,0,2,8)
  ShowMessage("\\n<Banachi>Is that a good thing...?")
  EndEventProcessing()
  0()



EVENT   28
 PAGE   1
  ShowMessageFace("tatunoko_k_fc1",0,0,2,1)
  ShowMessage("\\n<Sea Horse Marine>I'm patrolling the headquarters!")
  If(1,1050,0,5,2)
   ShowMessageFace("tatunoko_k_fc1",0,0,2,2)
   ShowMessage("\\n<Sea Horse Marine>I saw a suspicous dog...")
   ShowMessage("But she gave me some food, so I let her get away.")
   355("actor_label_jump")
   EndEventProcessing()
   DefineLabel("525")
   ShowMessageFace("sonia_fc4",0,0,2,3)
   ShowMessage("\\n<Sonya>What good are guards if they can be bribed by a dog...?")
   EndEventProcessing()
   DefineLabel("156")
   ShowMessageFace("d_fighter_fc1",0,0,2,4)
   ShowMessage("\\n<Regina>You sure are unreliable...")
   EndEventProcessing()
   DefineLabel("529")
   ShowMessageFace("sara_fc1",4,0,2,5)
   ShowMessage("\\n<Sara>The guards here, what are they doing...?")
   EndEventProcessing()
   0()
  EndIf()
  0()



EVENT   29
 PAGE   1
  If(1,1001,0,30,2)
   ShowMessageFace("umiusi_k_fc1",0,0,2,1)
   ShowMessage("\\n<Slug Marine>In the past, mermaids were part of the navy as well.")
   ShowMessage("But every last one of them returned to their queen.")
   ShowMessageFace("umiusi_k_fc1",0,0,2,2)
   ShowMessage("\\n<Slug Marine>When Queen Mermaid was defeated by the 17th Monster Lord, the Mermaids were driven away...")
   ShowMessageFace("umiusi_k_fc1",0,0,2,3)
   ShowMessage("\\n<Slug Marine>That's why there's only sea slugs and sea horses left in the navy.")
   ShowMessage("Because of that, our strength decreased. But we've been working hard to recover.")
   355("actor_label_jump")
   EndEventProcessing()
   DefineLabel("203")
   ShowMessageFace("tatunoko_k_fc1",2,0,2,4)
   ShowMessage("\\n<Tatsuko>We're working hard too...")
   EndEventProcessing()
   DefineLabel("204")
   ShowMessageFace("umiusi_k_fc1",2,0,2,5)
   ShowMessage("\\n<Stacy>Recently, lack of manpower has become a serious problem...")
   EndEventProcessing()
   0()
  EndIf()
  If(1,1001,0,31,1)
   ShowMessageFace("umiusi_k_fc1",0,0,2,6)
   ShowMessage("\\n<Slug Marine>The mermaids haven't returned yet...")
   ShowMessage("It seems like they're busy forming an alliance with Saint Ilia.")
   ShowMessageFace("umiusi_k_fc1",0,0,2,7)
   ShowMessage("\\n<Slug Marine>I guess that during the war against the Monster Lord, we'll have to rely on ourselves...")
   EndEventProcessing()
   0()
  EndIf()
  0()



EVENT   30
 PAGE   1
  ShowMessageFace("tatunoko_k_fc1",2,0,2,1)
  ShowMessage("\\n<Sea Horse Marine>Munch...")
  ShowMessageFace("",0,0,2,2)
  ShowMessage("The Sea Horse Marine is eating some fish!")
  355("actor_label_jump")
  EndEventProcessing()
  DefineLabel("53")
  ShowMessageFace("slime_fc1",0,0,2,3)
  ShowMessage("\\n<Lime>Fish~!")
  ShowMessageFace("tatunoko_k_fc1",2,0,2,4)
  ShowMessage("\\n<Sea Horse Marine>I'll give you one, but you'll have to earn it.")
  ShowMessageFace("slime_fc1",0,0,2,5)
  ShowMessage("\\n<Lime>Yay♪")
  EndEventProcessing()
  DefineLabel("205")
  ShowMessageFace("levia_fc1",0,0,2,6)
  ShowMessage("\\n<Levia>How's the fish...?")
  ShowMessageFace("tatunoko_k_fc1",2,0,2,7)
  ShowMessage("\\n<Sea Horse Marine>.....................")
  ShowMessageFace("",0,0,2,8)
  ShowMessage("The Sea Horse Marine stood up abruptly and started cleaning up the floor...")
  EndEventProcessing()
  0()



EVENT   31
 PAGE   1
  If(1,1001,0,25,2)
   ShowMessageFace("umiusi_k_fc1",0,0,2,1)
   ShowMessage("\\n<Slug Marine>The land of Grand Noah is just north of here.\nIt's close enough to see with the naked eye.")
   ShowMessageFace("umiusi_k_fc1",0,0,2,2)
   ShowMessage("\\n<Slug Marine>The navy however does not participate in the alliance...")
   ShowMessage("We're watching Grangold's actions closely while protecting peace at sea.")
   355("actor_label_jump")
   EndEventProcessing()
   DefineLabel("525")
   ShowMessageFace("sonia_fc1",0,0,2,3)
   ShowMessage("\\n<Sonya>As a matter of fact, it's all about being an allied army.")
   EndEventProcessing()
   0()
  EndIf()
  If(1,1001,0,26,1)
   ShowMessageFace("umiusi_k_fc1",0,0,2,4)
   ShowMessage("\\n<Slug Marine>If you think the war has ended, then what is this fight against the Monster Army?")
   ShowMessage("The navy will continue to fight for peace at sea, no matter what.")
   EndEventProcessing()
   0()
  EndIf()
  0()



EVENT   32
 PAGE   1
  0()



EVENT   33
 PAGE   1
  If(1,1001,0,25,2)
   If(1,1050,0,8,2)
    ShowMessageFace("tatunoko_k_fc1",0,0,2,1)
    ShowMessage("\\n<Sea Horse Marine>Due to the war, pirate activity has grown.")
    ShowMessage("The most noticeable group right now is the Fishy Pirates.")
    EndEventProcessing()
    0()
   EndIf()
   If(1,1050,0,9,1)
    ShowMessageFace("tatunoko_k_fc1",0,0,2,2)
    ShowMessage("\\n<Sea Horse Marine>The capture of the Fishy Pirates was a success!")
    ShowMessage("The Admiral has already expressed how proud she is of the Navy!")
    If(4,203,0)
     ShowMessageFace("tatunoko_k_fc1",1,0,2,3)
     ShowMessage("\\n<Tatsuko>I was also a big help!")
     ShowMessageFace("tatunoko_k_fc1",2,0,2,4)
     ShowMessage("\\n<Tatsuko>...I think.")
     0()
    EndIf()
    If(4,204,0)
     ShowMessageFace("umiusi_k_fc1",1,0,2,5)
     ShowMessage("\\n<Stacy>We worked very hard.♪")
     0()
    EndIf()
    EndEventProcessing()
    0()
   EndIf()
   0()
  EndIf()
  If(1,1001,0,26,1)
   ShowMessageFace("tatunoko_k_fc1",0,0,2,6)
   ShowMessage("\\n<Sea Horse Marine>Since the Monster Lord declared war, pirate activity has almost ceased...")
   ShowMessage("However, activity reports from sea monsters have grown exponentially.")
   EndEventProcessing()
   0()
  EndIf()
  0()



EVENT   34
 PAGE   1
  ShowMessageFace("umiusi_k_fc1",0,0,2,1)
  ShowMessage("\\n<Slug Marine>The sea is divided into the inner and the outer sea.")
  ShowMessage("The inner sea is the area surrounded by the Ilias and the Sentora Continent.")
  ShowMessageFace("umiusi_k_fc1",0,0,2,2)
  ShowMessage("\\n<Slug Marine>In these waters the waves are calm and the monsters aren't too strong.")
  ShowMessage("That's also where the Merchant ships circulate.")
  ShowMessageFace("umiusi_k_fc1",0,0,2,3)
  ShowMessage("\\n<Slug Marine>The outer sea is the area outside the borders of those two continents.")
  ShowMessage("It is vast, the waves are rough and there's lots of dangerous monsters.")
  ShowMessageFace("umiusi_k_fc1",0,0,2,4)
  ShowMessage("\\n<Slug Marine>It's the gate closer to the Navy Headquarters that separates the inner from the outer sea.")
  ShowMessage("However, it is usually sealed and traffic is not allowed.")
  0()



EVENT   35
 PAGE   1
  250(bytes(0x04,0x08,0x6f,0x3a,0x0c,0x52,0x50,0x47,0x3a,0x3a,0x53,0x45,0x08,0x3a,0x0a,0x40,0x6e,0x61,0x6d,0x65,0x49,0x22,0x0a,0x49,0x74,0x65,0x6d,0x31,0x06,0x3a,0x06,0x45,0x54,0x3a,0x0b,0x40,0x70,0x69,0x74,0x63,0x68,0x69,0x69,0x3a,0x0c,0x40,0x76,0x6f,0x6c,0x75,0x6d,0x65,0x69,0x55))
  ChangeSelfSwitch("A",0)
  ChangeInventory_Item(72,0,0,1)
  0()
 PAGE   2
  // condition: self-switch A is ON
  0()



EVENT   36
 PAGE   1
  250(bytes(0x04,0x08,0x6f,0x3a,0x0c,0x52,0x50,0x47,0x3a,0x3a,0x53,0x45,0x08,0x3a,0x0a,0x40,0x6e,0x61,0x6d,0x65,0x49,0x22,0x0a,0x49,0x74,0x65,0x6d,0x31,0x06,0x3a,0x06,0x45,0x54,0x3a,0x0b,0x40,0x70,0x69,0x74,0x63,0x68,0x69,0x69,0x3a,0x0c,0x40,0x76,0x6f,0x6c,0x75,0x6d,0x65,0x69,0x55))
  ChangeSelfSwitch("A",0)
  ChangeInventory_Item(204,0,0,1)
  0()
 PAGE   2
  // condition: self-switch A is ON
  0()



EVENT   37
 PAGE   1
  ShowMessageFace("tatunoko_k_fc1",0,0,2,1)
  ShowMessage("\\n<Sea Horse Marine>Marine Basics, Part 1!")
  ShowMessage("You can open the map with the buttons 7 and 8 on the ocean as well!")
  ShowMessageFace("tatunoko_k_fc1",0,0,2,2)
  ShowMessage("\\n<Sea Horse Marine>Your position is displayed with a yellow circle!")
  ShowMessage("Always keep track of where you are and try not to get lost!")
  ShowMessageFace("tatunoko_k_fc1",0,0,2,3)
  ShowMessage("\\n<Sea Horse Marine>Marine Basics, Part 2!")
  ShowMessage("If you lose sight of your ship, use a harpy feather or warp magic!")
  ShowMessageFace("tatunoko_k_fc1",0,0,2,4)
  ShowMessage("\\n<Sea Horse Marine>If you warp to a town, the ship will be in the nearby ocean.")
  ShowMessage("Port towns near the sea or the Navy Headquarters are recommended for this.")
  If(1,1001,0,21,2)
   If(0,4,0)
    ShowMessageFace("alice_fc5",1,0,2,5)
    ShowMessage("\\n<Alice>We might get a ship of our own in our travels.")
    ShowMessage("We should keep this information in mind for when that time comes.")
    0()
   EndIf()
   If(0,5,0)
    ShowMessageFace("iriasu_fc4",0,0,2,6)
    ShowMessage("\\n<Ilias>We might need a ship of our own sometime soon.")
    ShowMessage("Luka, keep this in mind for when we get one.")
    0()
   EndIf()
   0()
  EndIf()
  0()



EVENT   38
 PAGE   1
  If(1,1089,0,1,2)
   ShowMessageFace("tatunoko_k_fc1",0,0,2,1)
   ShowMessage("\\n<Sea Horse Marine>There's a pirate group called the Gloria Pirates with only female humans on their crew.")
   ShowMessage("They're rampaging across the seas, so you should be careful.")
   0()
  EndIf()
  If(1,1089,0,2,1)
   ShowMessageFace("tatunoko_k_fc1",0,0,2,2)
   ShowMessage("\\n<Sea Horse Marine>The Gloria Pirates were finally arrested, but they got bailed out right away.")
   ShowMessage("Pirate hunting was their main focus, so their charges dropped considerably.")
   0()
  EndIf()
  0()
