
DisplayName "Safar Ruins Area 4"



EVENT   1
 PAGE   1
  250(bytes(0x04,0x08,0x6f,0x3a,0x0c,0x52,0x50,0x47,0x3a,0x3a,0x53,0x45,0x08,0x3a,0x0a,0x40,0x6e,0x61,0x6d,0x65,0x49,0x22,0x09,0x4d,0x6f,0x76,0x65,0x06,0x3a,0x06,0x45,0x54,0x3a,0x0b,0x40,0x70,0x69,0x74,0x63,0x68,0x69,0x69,0x3a,0x0c,0x40,0x76,0x6f,0x6c,0x75,0x6d,0x65,0x69,0x55))
  TeleportPlayer(0,393,48,7,0,0)
  0()



EVENT   2
 PAGE   1
  250(bytes(0x04,0x08,0x6f,0x3a,0x0c,0x52,0x50,0x47,0x3a,0x3a,0x53,0x45,0x08,0x3a,0x0a,0x40,0x6e,0x61,0x6d,0x65,0x49,0x22,0x09,0x4d,0x6f,0x76,0x65,0x06,0x3a,0x06,0x45,0x54,0x3a,0x0b,0x40,0x70,0x69,0x74,0x63,0x68,0x69,0x69,0x3a,0x0c,0x40,0x76,0x6f,0x6c,0x75,0x6d,0x65,0x69,0x55))
  TeleportPlayer(0,393,48,7,0,0)
  0()



EVENT   3
 PAGE   1
  250(bytes(0x04,0x08,0x6f,0x3a,0x0c,0x52,0x50,0x47,0x3a,0x3a,0x53,0x45,0x08,0x3a,0x0a,0x40,0x6e,0x61,0x6d,0x65,0x49,0x22,0x09,0x4d,0x6f,0x76,0x65,0x06,0x3a,0x06,0x45,0x54,0x3a,0x0b,0x40,0x70,0x69,0x74,0x63,0x68,0x69,0x69,0x3a,0x0c,0x40,0x76,0x6f,0x6c,0x75,0x6d,0x65,0x69,0x55))
  TeleportPlayer(0,393,48,7,0,0)
  0()



EVENT   4
 PAGE   1
  250(bytes(0x04,0x08,0x6f,0x3a,0x0c,0x52,0x50,0x47,0x3a,0x3a,0x53,0x45,0x08,0x3a,0x0a,0x40,0x6e,0x61,0x6d,0x65,0x49,0x22,0x09,0x4d,0x6f,0x76,0x65,0x06,0x3a,0x06,0x45,0x54,0x3a,0x0b,0x40,0x70,0x69,0x74,0x63,0x68,0x69,0x69,0x3a,0x0c,0x40,0x76,0x6f,0x6c,0x75,0x6d,0x65,0x69,0x55))
  TeleportPlayer(0,393,48,7,0,0)
  0()



EVENT   5
 PAGE   1
  250(bytes(0x04,0x08,0x6f,0x3a,0x0c,0x52,0x50,0x47,0x3a,0x3a,0x53,0x45,0x08,0x3a,0x0a,0x40,0x6e,0x61,0x6d,0x65,0x49,0x22,0x0a,0x43,0x68,0x65,0x73,0x74,0x06,0x3a,0x06,0x45,0x54,0x3a,0x0b,0x40,0x70,0x69,0x74,0x63,0x68,0x69,0x69,0x3a,0x0c,0x40,0x76,0x6f,0x6c,0x75,0x6d,0x65,0x69,0x55))
  205(0,bytes(0x04,0x08,0x6f,0x3a,0x13,0x52,0x50,0x47,0x3a,0x3a,0x4d,0x6f,0x76,0x65,0x52,0x6f,0x75,0x74,0x65,0x09,0x3a,0x0c,0x40,0x72,0x65,0x70,0x65,0x61,0x74,0x46,0x3a,0x0f,0x40,0x73,0x6b,0x69,0x70,0x70,0x61,0x62,0x6c,0x65,0x46,0x3a,0x0a,0x40,0x77,0x61,0x69,0x74,0x54,0x3a,0x0a,0x40,0x6c,0x69,0x73,0x74,0x5b,0x0b,0x6f,0x3a,0x15,0x52,0x50,0x47,0x3a,0x3a,0x4d,0x6f,0x76,0x65,0x43,0x6f,0x6d,0x6d,0x61,0x6e,0x64,0x07,0x3a,0x0a,0x40,0x63,0x6f,0x64,0x65,0x69,0x29,0x3a,0x10,0x40,0x70,0x61,0x72,0x61,0x6d,0x65,0x74,0x65,0x72,0x73,0x5b,0x00,0x6f,0x3b,0x0a,0x07,0x3b,0x0b,0x69,0x16,0x3b,0x0c,0x5b,0x00,0x6f,0x3b,0x0a,0x07,0x3b,0x0b,0x69,0x14,0x3b,0x0c,0x5b,0x06,0x69,0x08,0x6f,0x3b,0x0a,0x07,0x3b,0x0b,0x69,0x17,0x3b,0x0c,0x5b,0x00,0x6f,0x3b,0x0a,0x07,0x3b,0x0b,0x69,0x14,0x3b,0x0c,0x5b,0x06,0x69,0x08,0x6f,0x3b,0x0a,0x07,0x3b,0x0b,0x69,0x00,0x3b,0x0c,0x5b,0x00))
  ChangeSelfSwitch("A",0)
  ChangeInventoryWeapon(874,0,0,1)
  0()
 PAGE   2
  // condition: self-switch A is ON
  0()



EVENT   6
 PAGE   1
  250(bytes(0x04,0x08,0x6f,0x3a,0x0c,0x52,0x50,0x47,0x3a,0x3a,0x53,0x45,0x08,0x3a,0x0a,0x40,0x6e,0x61,0x6d,0x65,0x49,0x22,0x0a,0x43,0x68,0x65,0x73,0x74,0x06,0x3a,0x06,0x45,0x54,0x3a,0x0b,0x40,0x70,0x69,0x74,0x63,0x68,0x69,0x69,0x3a,0x0c,0x40,0x76,0x6f,0x6c,0x75,0x6d,0x65,0x69,0x55))
  205(0,bytes(0x04,0x08,0x6f,0x3a,0x13,0x52,0x50,0x47,0x3a,0x3a,0x4d,0x6f,0x76,0x65,0x52,0x6f,0x75,0x74,0x65,0x09,0x3a,0x0c,0x40,0x72,0x65,0x70,0x65,0x61,0x74,0x46,0x3a,0x0f,0x40,0x73,0x6b,0x69,0x70,0x70,0x61,0x62,0x6c,0x65,0x46,0x3a,0x0a,0x40,0x77,0x61,0x69,0x74,0x54,0x3a,0x0a,0x40,0x6c,0x69,0x73,0x74,0x5b,0x0b,0x6f,0x3a,0x15,0x52,0x50,0x47,0x3a,0x3a,0x4d,0x6f,0x76,0x65,0x43,0x6f,0x6d,0x6d,0x61,0x6e,0x64,0x07,0x3a,0x0a,0x40,0x63,0x6f,0x64,0x65,0x69,0x29,0x3a,0x10,0x40,0x70,0x61,0x72,0x61,0x6d,0x65,0x74,0x65,0x72,0x73,0x5b,0x00,0x6f,0x3b,0x0a,0x07,0x3b,0x0b,0x69,0x16,0x3b,0x0c,0x5b,0x00,0x6f,0x3b,0x0a,0x07,0x3b,0x0b,0x69,0x14,0x3b,0x0c,0x5b,0x06,0x69,0x08,0x6f,0x3b,0x0a,0x07,0x3b,0x0b,0x69,0x17,0x3b,0x0c,0x5b,0x00,0x6f,0x3b,0x0a,0x07,0x3b,0x0b,0x69,0x14,0x3b,0x0c,0x5b,0x06,0x69,0x08,0x6f,0x3b,0x0a,0x07,0x3b,0x0b,0x69,0x00,0x3b,0x0c,0x5b,0x00))
  ChangeSelfSwitch("A",0)
  ChangeInventory_Item(72,0,0,1)
  0()
 PAGE   2
  // condition: self-switch A is ON
  0()



EVENT   8
 PAGE   1
  // condition: variable 1001 >= 17
  PictureDisplay(5,"80_gnome_st01",0,0,0,0,100,100,0,0)
  PictureMove(5,null,0,0,0,0,100,100,255,0,30,true)
  ShowMessageFace("gnome_fc1",0,0,2,1)
  ShowMessage("\\n<Gnome>......")
  If(0,6,0)
   ShowMessageFace("sonia_fc1",0,0,2,2)
   ShowMessage("\\n<Sonya>Umm... Are you Gnome?")
   0()
  Else()
   ShowMessageFace("ruka_fc1",0,0,2,3)
   ShowMessage("\\n<Luka>Are you... Gnome?")
   0()
  EndIf()
  ShowMessageFace("gnome_fc1",0,0,2,4)
  ShowMessage("\\n<Gnome>......")
  ShowMessageFace("",0,0,2,5)
  ShowMessage("Gnome nods repeatedly...")
  If(4,79,0)
   ShowMessageFace("nuruko_fc1",0,0,2,6)
   ShowMessage("\\n<Nuruko>Kyuu! Kyuu!")
   0()
  EndIf()
  ShowMessageFace("ruka_fc1",0,0,2,7)
  ShowMessage("\\n<Luka>Um... I'm here because I want you to lend me your strength.")
  ShowMessageFace("sylph_fc1",0,0,2,8)
  ShowMessage("\\n<Sylph>Yaaay, it's Gnomey!")
  ShowMessageFace("gnome_fc1",0,0,2,9)
  ShowMessage("\\n<Gnome>......")
  ShowMessageFace("sylph_fc1",3,0,2,10)
  ShowMessage("\\n<Sylph>Hey, Gnomey, possess this human so we can play together! ♪")
  ShowMessageFace("gnome_fc1",0,0,2,11)
  ShowMessage("\\n<Gnome>......")
  ShowMessageFace("sylph_fc1",1,0,2,12)
  ShowMessage("\\n<Sylph>...I see. That's true, Gnomey just met Luka, didn't she?")
  If(0,6,0)
   ShowMessageFace("sonia_fc2",2,0,2,13)
   ShowMessage("\\n<Sonya>...She understands Gnome?")
   0()
  Else()
   ShowMessageFace("ruka_fc1",0,0,2,14)
   ShowMessage("\\n<Luka>Um... What's happening?")
   0()
  EndIf()
  ShowMessageFace("sylph_fc1",0,0,2,15)
  ShowMessage("\\n<Sylph>'If you want power, then show me your own power first.' In other words, you need to beat Gnomey in a fight.")
  If(0,4,0)
   ShowMessageFace("alice_fc5",2,0,2,16)
   ShowMessage("\\n<Alice>Well, I thought that'd be the case... Let's go!")
   0()
  EndIf()
  If(0,5,0)
   ShowMessageFace("iriasu_fc4",1,0,2,17)
   ShowMessage("\\n<Ilias>Is this really necessary? Well in that case, how about we make a sandbag out of her?")
   0()
  EndIf()
  ShowMessageFace("ruka_fc1",0,0,2,18)
  ShowMessage("\\n<Luka>All right, I won't lose!")
  If(0,6,0)
   ShowMessageFace("sonia_fc1",3,0,2,19)
   ShowMessage("\\n<Sonya>I'll help too! Going at full power!")
   0()
  EndIf()
  If(4,79,0)
   ShowMessageFace("nuruko_fc1",0,0,2,20)
   ShowMessage("\\n<Nuruko>Kyuu! Kyuu!")
   0()
  EndIf()
  If(4,41,0)
   ShowMessageFace("stein_fc2",1,0,2,21)
   ShowMessage("\\n<Promestein>I wonder if she'll bleed earth when I dissect her...")
   0()
  EndIf()
  If(4,118,0)
   ShowMessageFace("meia_fc1",1,0,2,22)
   ShowMessage("\\n<Meia>Even if it's a test, I will show no mercy!")
   0()
  EndIf()
  If(4,531,0)
   ShowMessageFace("saniria_fc2",0,0,2,23)
   ShowMessage("\\n<King of San Ilia>You do know that the scriptures warn not to test the Goddess, do you not?")
   0()
  EndIf()
  If(4,129,0)
   ShowMessageFace("brunhild_fc2",0,0,2,24)
   ShowMessage("\\n<Hild>You, the world's enemy...? Then Hild will beat you up...")
   0()
  EndIf()
  If(4,134,0)
   ShowMessageFace("chrom_fc2",0,0,2,25)
   ShowMessage("\\n<Chrome>Behold, Chrome-chan's zombie judgment!")
   0()
  EndIf()
  If(4,529,0)
   ShowMessageFace("sara_fc1",1,0,2,26)
   ShowMessage("\\n<Sara>Since I have the opportunity, I might as well test my skill!")
   0()
  EndIf()
  If(4,155,0)
   ShowMessageFace("saki_fc1",3,0,2,27)
   ShowMessage("\\n<Saki>Well then, let's start Saki-chan's live performance☆!")
   0()
  EndIf()
  ShowMessageFace("gnome_fc1",0,0,2,28)
  ShowMessage("\\n<Gnome>......?!")
  If(4,13,0)
   ShowMessageFace("gnome_fc1",0,0,2,29)
   ShowMessage("\\n<Gnome’>……………………")
   ShowMessageFace("gnome_fc1",0,0,2,30)
   ShowMessage("\\n<Gnome>…………！？")
   ShowMessageFace("gnome_fc1",1,0,2,31)
   ShowMessage("\\n<Gnome’>……………………")
   ShowMessageFace("gnome_fc1",1,0,2,32)
   ShowMessage("\\n<Gnome>……………………")
   0()
  EndIf()
  PictureClear(5)
  SetBattleBGM(bytes(0x04,0x08,0x6f,0x3a,0x0d,0x52,0x50,0x47,0x3a,0x3a,0x42,0x47,0x4d,0x08,0x3a,0x0a,0x40,0x6e,0x61,0x6d,0x65,0x49,0x22,0x13,0x62,0x6f,0x73,0x73,0x5f,0x79,0x6f,0x6e,0x73,0x65,0x69,0x72,0x65,0x69,0x06,0x3a,0x06,0x45,0x54,0x3a,0x0c,0x40,0x76,0x6f,0x6c,0x75,0x6d,0x65,0x69,0x69,0x3a,0x0b,0x40,0x70,0x69,0x74,0x63,0x68,0x69,0x69))
  ChangeSwitch(22,22,0)
  Battle(0,299,false,false)
  ChangeSwitch(22,22,1)
  SetBattleBGM(bytes(0x04,0x08,0x6f,0x3a,0x0d,0x52,0x50,0x47,0x3a,0x3a,0x42,0x47,0x4d,0x08,0x3a,0x0a,0x40,0x6e,0x61,0x6d,0x65,0x49,0x22,0x0b,0x62,0x61,0x74,0x74,0x6c,0x65,0x06,0x3a,0x06,0x45,0x54,0x3a,0x0c,0x40,0x76,0x6f,0x6c,0x75,0x6d,0x65,0x69,0x69,0x3a,0x0b,0x40,0x70,0x69,0x74,0x63,0x68,0x69,0x69))
  PictureDisplay(5,"80_gnome_st02",0,0,0,0,100,100,0,0)
  PictureMove(5,null,0,0,0,0,100,100,255,0,30,true)
  ShowMessageFace("gnome_fc1",0,0,2,33)
  ShowMessage("\\n<Gnome>......")
  ShowMessageFace("sylph_fc1",3,0,2,34)
  ShowMessage("\\n<Sylph>'I consent, so stop hitting me...' she said.")
  ShowMessageFace("ruka_fc1",0,0,2,35)
  ShowMessage("\\n<Luka>We overdid it...")
  PictureDisplay(5,"80_gnome_st01",0,0,0,0,100,100,255,0)
  ShowMessageFace("gnome_fc1",0,0,2,36)
  ShowMessage("\\n<Gnome>......")
  ShowMessageFace("",0,0,2,37)
  ShowMessage("Gnome stares intently at Luka's face and quietly holds out her hand.")
  ShowMessageFace("ruka_fc1",0,0,2,38)
  ShowMessage("\\n<Luka>Eh...?")
  ShowMessageFace("gnome_fc1",0,0,2,39)
  ShowMessage("\\n<Gnome>......")
  ShowMessageFace("",0,0,2,40)
  ShowMessage("While still staring at Luka's face, Gnome repeatedly opens and closes her hand. Maybe she wants a handshake...?")
  ShowMessageFace("ruka_fc1",0,0,2,41)
  ShowMessage("\\n<Luka>All right...")
  ShowMessageFace("gnome_fc1",0,0,2,42)
  ShowMessage("\\n<Gnome>......")
  250(bytes(0x04,0x08,0x6f,0x3a,0x0c,0x52,0x50,0x47,0x3a,0x3a,0x53,0x45,0x08,0x3a,0x0a,0x40,0x6e,0x61,0x6d,0x65,0x49,0x22,0x0d,0x6d,0x6f,0x6e,0x5f,0x77,0x61,0x72,0x6d,0x06,0x3a,0x06,0x45,0x54,0x3a,0x0b,0x40,0x70,0x69,0x74,0x63,0x68,0x69,0x69,0x3a,0x0c,0x40,0x76,0x6f,0x6c,0x75,0x6d,0x65,0x69,0x69))
  PictureDisplay(6,"sys_white",0,0,0,0,100,100,0,0)
  PictureMove(6,null,0,0,0,0,100,100,255,0,30,true)
  PictureMove(6,null,0,0,0,0,100,100,0,0,30,true)
  PictureClear(6)
  ShowMessageFace("",0,0,2,43)
  ShowMessage("Power flows into Luka's body! It's as if the breath of the land is taking root inside of him!")
  318(0,1,0,3107)
  250(bytes(0x04,0x08,0x6f,0x3a,0x0c,0x52,0x50,0x47,0x3a,0x3a,0x53,0x45,0x08,0x3a,0x0a,0x40,0x6e,0x61,0x6d,0x65,0x49,0x22,0x0a,0x49,0x74,0x65,0x6d,0x31,0x06,0x3a,0x06,0x45,0x54,0x3a,0x0b,0x40,0x70,0x69,0x74,0x63,0x68,0x69,0x69,0x3a,0x0c,0x40,0x76,0x6f,0x6c,0x75,0x6d,0x65,0x69,0x55))
  ShowMessageFace("",0,0,2,44)
  ShowMessage("Luka learned \\I[300]\\C[1]Gnome\\C[0]!")
  ShowMessageFace("gnome_fc1",0,0,2,45)
  ShowMessage("\\n<Gnome>......")
  ShowMessageFace("sylph_fc1",0,0,2,46)
  ShowMessage("\\n<Sylph>Gnomey says she wants to play together. Hey, let's bring her into the party!")
  ShowMessageFace("ruka_fc1",0,0,2,47)
  ShowMessage("\\n<Luka>Sure, I'd love to have you along!")
  ShowMessageFace("gnome_fc1",0,0,2,48)
  ShowMessage("\\n<Gnome>......")
  PictureClear(5)
  205(0,bytes(0x04,0x08,0x6f,0x3a,0x13,0x52,0x50,0x47,0x3a,0x3a,0x4d,0x6f,0x76,0x65,0x52,0x6f,0x75,0x74,0x65,0x09,0x3a,0x0c,0x40,0x72,0x65,0x70,0x65,0x61,0x74,0x46,0x3a,0x0f,0x40,0x73,0x6b,0x69,0x70,0x70,0x61,0x62,0x6c,0x65,0x46,0x3a,0x0a,0x40,0x77,0x61,0x69,0x74,0x54,0x3a,0x0a,0x40,0x6c,0x69,0x73,0x74,0x5b,0x09,0x6f,0x3a,0x15,0x52,0x50,0x47,0x3a,0x3a,0x4d,0x6f,0x76,0x65,0x43,0x6f,0x6d,0x6d,0x61,0x6e,0x64,0x07,0x3a,0x0a,0x40,0x63,0x6f,0x64,0x65,0x69,0x2a,0x3a,0x10,0x40,0x70,0x61,0x72,0x61,0x6d,0x65,0x74,0x65,0x72,0x73,0x5b,0x00,0x6f,0x3b,0x0a,0x07,0x3b,0x0b,0x69,0x0f,0x3b,0x0c,0x5b,0x00,0x6f,0x3b,0x0a,0x07,0x3b,0x0b,0x69,0x2c,0x3b,0x0c,0x5b,0x00,0x6f,0x3b,0x0a,0x07,0x3b,0x0b,0x69,0x00,0x3b,0x0c,0x5b,0x00))
  355("add_actor_ex(13)")
  249(bytes(0x04,0x08,0x6f,0x3a,0x0c,0x52,0x50,0x47,0x3a,0x3a,0x4d,0x45,0x08,0x3a,0x0a,0x40,0x6e,0x61,0x6d,0x65,0x49,0x22,0x0c,0x66,0x61,0x6e,0x66,0x61,0x6c,0x65,0x06,0x3a,0x06,0x45,0x54,0x3a,0x0b,0x40,0x70,0x69,0x74,0x63,0x68,0x69,0x69,0x3a,0x0c,0x40,0x76,0x6f,0x6c,0x75,0x6d,0x65,0x69,0x69))
  ShowMessageFace("",0,0,2,49)
  ShowMessage("Gnome has joined the party!")
  If(4,62,0)
   ShowMessageFace("gob_fc1",0,0,2,50)
   ShowMessage("\\n<Gob>Yaay, a new member! Let's get along!")
   If(4,79,0)
    ShowMessageFace("nuruko_fc1",0,0,2,51)
    ShowMessage("\\n<Nuruko>Kyukyukyuu!")
    0()
   EndIf()
   ShowMessageFace("gnome_fc1",0,0,2,52)
   ShowMessage("\\n<Gnome>......")
   0()
  EndIf()
  ChangeVariable(1001,1001,0,0,18)
  If(0,4,0)
   ShowMessageFace("alice_fc5",1,0,2,53)
   ShowMessage("\\n<Alice>With this, the contract with Gnome is completed. I guess the only thing left for us to do in the Sabasa region is to investigate the Tartarus rift.")
   ShowMessageFace("alice_fc5",1,0,2,54)
   ShowMessage("\\n<Alice>The Tartarus rift is east of Saloon, in an area beyond a few bridges.")
   0()
  EndIf()
  If(0,5,0)
   ShowMessageFace("iriasu_fc4",0,0,2,55)
   ShowMessage("\\n<Ilias>We've finished turning Gnome into our servant. That makes the investigation of the Tartarus rift the last thing for us to do in the Sabasa region.")
   ShowMessageFace("iriasu_fc4",0,0,2,56)
   ShowMessage("\\n<Ilias>The Tartarus rift is east of Saloon, in an area beyond a few bridges.")
   0()
  EndIf()
  If(0,6,0)
   ShowMessageFace("sonia_fc1",0,0,2,57)
   ShowMessage("\\n<Sonya>After everything we've done here, I guess we finally say goodbye to Sabasa... Well then, let's give it our all!")
   0()
  Else()
   ShowMessageFace("ruka_fc1",0,0,2,58)
   ShowMessage("\\n<Luka>So here's where we say goodbye to Sabasa, huh... Now it's finally time to go to the Tartarus rift!")
   0()
  EndIf()
  If(4,129,0)
   ShowMessageFace("brunhild_fc1",0,0,2,59)
   ShowMessage("\\n<Hild>We go beat Tartarus...? Hild will do her best...")
   0()
  EndIf()
  ShowMessageFace("",0,0,2,60)
  ShowMessage("The great, mysterious hole that opened in the earth, Tartarus. And the parallel worlds that exist on the other side...")
  ShowMessageFace("",0,0,2,61)
  ShowMessage("I wonder what kind of parallel world is waiting for us next. And so we head east of Saloon...")
  355("gain_medal(29)")
  EndEventProcessing()
  0()
 PAGE   2
  // condition: variable 1001 >= 18
  0()



EVENT   9
 PAGE   1
  // condition: switch 31 is ON
  0()



EVENT   10
 PAGE   1
  // condition: switch 31 is ON
  0()



EVENT   11
 PAGE   1
  // condition: switch 31 is ON
  0()



EVENT   12
 PAGE   1
  // condition: variable 1001 >= 15
  If(0,4,0)
   ShowMessageFace("alice_fc5",0,0,2,1)
   ShowMessage("\\n<Alice>……妙だな、ノームの姿はどこにもないようだ。")
   ShowMessage("警戒して隠れているのか？")
   ShowMessageFace("alice_fc5",0,0,2,2)
   ShowMessage("\\n<Alice>他の精霊がいれば、釣られて姿を見せるかもしれんな。")
   ShowMessage("順番を間違えたのではないか……？")
   0()
  EndIf()
  If(0,5,0)
   ShowMessageFace("iriasu_fc4",2,0,2,3)
   ShowMessage("\\n<Ilias>……妙ですね、ノームの姿がどこにもないようです。")
   ShowMessage("警戒して隠れているのでしょうか……")
   ShowMessageFace("iriasu_fc4",2,0,2,4)
   ShowMessage("\\n<Ilias>他の精霊がいれば、釣られて姿を見せるかもしれません。")
   ShowMessage("順番を間違えたのではないでしょうか……？")
   0()
  EndIf()
  TemporaryRemoveEvent()
  EndEventProcessing()
  0()
 PAGE   2
  // condition: variable 1001 >= 17
  ChangeSelfSwitch("A",0)
  ChangeSwitch(31,31,0)
  205(9,bytes(0x04,0x08,0x6f,0x3a,0x13,0x52,0x50,0x47,0x3a,0x3a,0x4d,0x6f,0x76,0x65,0x52,0x6f,0x75,0x74,0x65,0x09,0x3a,0x0c,0x40,0x72,0x65,0x70,0x65,0x61,0x74,0x46,0x3a,0x0f,0x40,0x73,0x6b,0x69,0x70,0x70,0x61,0x62,0x6c,0x65,0x46,0x3a,0x0a,0x40,0x77,0x61,0x69,0x74,0x46,0x3a,0x0a,0x40,0x6c,0x69,0x73,0x74,0x5b,0x14,0x6f,0x3a,0x15,0x52,0x50,0x47,0x3a,0x3a,0x4d,0x6f,0x76,0x65,0x43,0x6f,0x6d,0x6d,0x61,0x6e,0x64,0x07,0x3a,0x0a,0x40,0x63,0x6f,0x64,0x65,0x69,0x2a,0x3a,0x10,0x40,0x70,0x61,0x72,0x61,0x6d,0x65,0x74,0x65,0x72,0x73,0x5b,0x00,0x6f,0x3b,0x0a,0x07,0x3b,0x0b,0x69,0x08,0x3b,0x0c,0x5b,0x00,0x6f,0x3b,0x0a,0x07,0x3b,0x0b,0x69,0x08,0x3b,0x0c,0x5b,0x00,0x6f,0x3b,0x0a,0x07,0x3b,0x0b,0x69,0x08,0x3b,0x0c,0x5b,0x00,0x6f,0x3b,0x0a,0x07,0x3b,0x0b,0x69,0x08,0x3b,0x0c,0x5b,0x00,0x6f,0x3b,0x0a,0x07,0x3b,0x0b,0x69,0x08,0x3b,0x0c,0x5b,0x00,0x6f,0x3b,0x0a,0x07,0x3b,0x0b,0x69,0x08,0x3b,0x0c,0x5b,0x00,0x6f,0x3b,0x0a,0x07,0x3b,0x0b,0x69,0x08,0x3b,0x0c,0x5b,0x00,0x6f,0x3b,0x0a,0x07,0x3b,0x0b,0x69,0x08,0x3b,0x0c,0x5b,0x00,0x6f,0x3b,0x0a,0x07,0x3b,0x0b,0x69,0x08,0x3b,0x0c,0x5b,0x00,0x6f,0x3b,0x0a,0x07,0x3b,0x0b,0x69,0x08,0x3b,0x0c,0x5b,0x00,0x6f,0x3b,0x0a,0x07,0x3b,0x0b,0x69,0x08,0x3b,0x0c,0x5b,0x00,0x6f,0x3b,0x0a,0x07,0x3b,0x0b,0x69,0x08,0x3b,0x0c,0x5b,0x00,0x6f,0x3b,0x0a,0x07,0x3b,0x0b,0x69,0x2c,0x3b,0x0c,0x5b,0x00,0x6f,0x3b,0x0a,0x07,0x3b,0x0b,0x69,0x00,0x3b,0x0c,0x5b,0x00))
  205(10,bytes(0x04,0x08,0x6f,0x3a,0x13,0x52,0x50,0x47,0x3a,0x3a,0x4d,0x6f,0x76,0x65,0x52,0x6f,0x75,0x74,0x65,0x09,0x3a,0x0c,0x40,0x72,0x65,0x70,0x65,0x61,0x74,0x46,0x3a,0x0f,0x40,0x73,0x6b,0x69,0x70,0x70,0x61,0x62,0x6c,0x65,0x46,0x3a,0x0a,0x40,0x77,0x61,0x69,0x74,0x46,0x3a,0x0a,0x40,0x6c,0x69,0x73,0x74,0x5b,0x14,0x6f,0x3a,0x15,0x52,0x50,0x47,0x3a,0x3a,0x4d,0x6f,0x76,0x65,0x43,0x6f,0x6d,0x6d,0x61,0x6e,0x64,0x07,0x3a,0x0a,0x40,0x63,0x6f,0x64,0x65,0x69,0x2a,0x3a,0x10,0x40,0x70,0x61,0x72,0x61,0x6d,0x65,0x74,0x65,0x72,0x73,0x5b,0x00,0x6f,0x3b,0x0a,0x07,0x3b,0x0b,0x69,0x08,0x3b,0x0c,0x5b,0x00,0x6f,0x3b,0x0a,0x07,0x3b,0x0b,0x69,0x08,0x3b,0x0c,0x5b,0x00,0x6f,0x3b,0x0a,0x07,0x3b,0x0b,0x69,0x08,0x3b,0x0c,0x5b,0x00,0x6f,0x3b,0x0a,0x07,0x3b,0x0b,0x69,0x08,0x3b,0x0c,0x5b,0x00,0x6f,0x3b,0x0a,0x07,0x3b,0x0b,0x69,0x08,0x3b,0x0c,0x5b,0x00,0x6f,0x3b,0x0a,0x07,0x3b,0x0b,0x69,0x08,0x3b,0x0c,0x5b,0x00,0x6f,0x3b,0x0a,0x07,0x3b,0x0b,0x69,0x08,0x3b,0x0c,0x5b,0x00,0x6f,0x3b,0x0a,0x07,0x3b,0x0b,0x69,0x08,0x3b,0x0c,0x5b,0x00,0x6f,0x3b,0x0a,0x07,0x3b,0x0b,0x69,0x08,0x3b,0x0c,0x5b,0x00,0x6f,0x3b,0x0a,0x07,0x3b,0x0b,0x69,0x08,0x3b,0x0c,0x5b,0x00,0x6f,0x3b,0x0a,0x07,0x3b,0x0b,0x69,0x08,0x3b,0x0c,0x5b,0x00,0x6f,0x3b,0x0a,0x07,0x3b,0x0b,0x69,0x08,0x3b,0x0c,0x5b,0x00,0x6f,0x3b,0x0a,0x07,0x3b,0x0b,0x69,0x2c,0x3b,0x0c,0x5b,0x00,0x6f,0x3b,0x0a,0x07,0x3b,0x0b,0x69,0x00,0x3b,0x0c,0x5b,0x00))
  205(11,bytes(0x04,0x08,0x6f,0x3a,0x13,0x52,0x50,0x47,0x3a,0x3a,0x4d,0x6f,0x76,0x65,0x52,0x6f,0x75,0x74,0x65,0x09,0x3a,0x0c,0x40,0x72,0x65,0x70,0x65,0x61,0x74,0x46,0x3a,0x0f,0x40,0x73,0x6b,0x69,0x70,0x70,0x61,0x62,0x6c,0x65,0x46,0x3a,0x0a,0x40,0x77,0x61,0x69,0x74,0x54,0x3a,0x0a,0x40,0x6c,0x69,0x73,0x74,0x5b,0x14,0x6f,0x3a,0x15,0x52,0x50,0x47,0x3a,0x3a,0x4d,0x6f,0x76,0x65,0x43,0x6f,0x6d,0x6d,0x61,0x6e,0x64,0x07,0x3a,0x0a,0x40,0x63,0x6f,0x64,0x65,0x69,0x2a,0x3a,0x10,0x40,0x70,0x61,0x72,0x61,0x6d,0x65,0x74,0x65,0x72,0x73,0x5b,0x00,0x6f,0x3b,0x0a,0x07,0x3b,0x0b,0x69,0x08,0x3b,0x0c,0x5b,0x00,0x6f,0x3b,0x0a,0x07,0x3b,0x0b,0x69,0x08,0x3b,0x0c,0x5b,0x00,0x6f,0x3b,0x0a,0x07,0x3b,0x0b,0x69,0x08,0x3b,0x0c,0x5b,0x00,0x6f,0x3b,0x0a,0x07,0x3b,0x0b,0x69,0x08,0x3b,0x0c,0x5b,0x00,0x6f,0x3b,0x0a,0x07,0x3b,0x0b,0x69,0x08,0x3b,0x0c,0x5b,0x00,0x6f,0x3b,0x0a,0x07,0x3b,0x0b,0x69,0x08,0x3b,0x0c,0x5b,0x00,0x6f,0x3b,0x0a,0x07,0x3b,0x0b,0x69,0x08,0x3b,0x0c,0x5b,0x00,0x6f,0x3b,0x0a,0x07,0x3b,0x0b,0x69,0x08,0x3b,0x0c,0x5b,0x00,0x6f,0x3b,0x0a,0x07,0x3b,0x0b,0x69,0x08,0x3b,0x0c,0x5b,0x00,0x6f,0x3b,0x0a,0x07,0x3b,0x0b,0x69,0x08,0x3b,0x0c,0x5b,0x00,0x6f,0x3b,0x0a,0x07,0x3b,0x0b,0x69,0x08,0x3b,0x0c,0x5b,0x00,0x6f,0x3b,0x0a,0x07,0x3b,0x0b,0x69,0x08,0x3b,0x0c,0x5b,0x00,0x6f,0x3b,0x0a,0x07,0x3b,0x0b,0x69,0x2c,0x3b,0x0c,0x5b,0x00,0x6f,0x3b,0x0a,0x07,0x3b,0x0b,0x69,0x00,0x3b,0x0c,0x5b,0x00))
  ChangeSwitch(31,31,1)
  0()
 PAGE   3
  // condition: self-switch A is ON
  0()
 PAGE   4
  // condition: variable 1001 >= 18
  0()



EVENT   13
 PAGE   1
  ShowMessageFace("",0,0,2,1)
  ShowMessage("There's a healing pot here...")
  250(bytes(0x04,0x08,0x6f,0x3a,0x0c,0x52,0x50,0x47,0x3a,0x3a,0x53,0x45,0x08,0x3a,0x0a,0x40,0x6e,0x61,0x6d,0x65,0x49,0x22,0x0a,0x48,0x65,0x61,0x6c,0x37,0x06,0x3a,0x06,0x45,0x54,0x3a,0x0b,0x40,0x70,0x69,0x74,0x63,0x68,0x69,0x69,0x3a,0x0c,0x40,0x76,0x6f,0x6c,0x75,0x6d,0x65,0x69,0x55))
  224(bytes(0x04,0x08,0x75,0x3a,0x0a,0x43,0x6f,0x6c,0x6f,0x72,0x25,0x00,0x00,0x00,0x00,0x00,0xe0,0x6f,0x40,0x00,0x00,0x00,0x00,0x00,0xe0,0x6f,0x40,0x00,0x00,0x00,0x00,0x00,0xe0,0x6f,0x40,0x00,0x00,0x00,0x00,0x00,0xe0,0x6f,0x40),30,true)
  314(0,0)
  ShowMessageFace("",0,0,2,2)
  ShowMessage("The party's HP and MP have been fully restored!")
  0()



EVENT   14
 PAGE   1
  250(bytes(0x04,0x08,0x6f,0x3a,0x0c,0x52,0x50,0x47,0x3a,0x3a,0x53,0x45,0x08,0x3a,0x0a,0x40,0x6e,0x61,0x6d,0x65,0x49,0x22,0x0a,0x49,0x74,0x65,0x6d,0x31,0x06,0x3a,0x06,0x45,0x54,0x3a,0x0b,0x40,0x70,0x69,0x74,0x63,0x68,0x69,0x69,0x3a,0x0c,0x40,0x76,0x6f,0x6c,0x75,0x6d,0x65,0x69,0x55))
  ChangeSelfSwitch("A",0)
  ChangeInventory_Item(21,0,0,1)
  0()
 PAGE   2
  // condition: self-switch A is ON
  0()



EVENT   15
 PAGE   1
  // condition: switch 1013 is ON
  // condition: variable 1047 >= 1
  // condition: party contains actor #167
  ChangeVariable(1047,1047,0,0,2)
  ShowMessageFace("lusia_fc1",0,0,2,1)
  ShowMessage("\\n<Lucia>I see, this is where the power of earth spirits gathers. I can feel the circulation of natural energy.")
  ShowMessageFace("lusia_fc1",0,0,2,2)
  ShowMessage("\\n<Lucia>Can I have some time? I would like to collect observation data on the spirits...")
  If(0,6,0)
   ShowMessageFace("sonia_fc2",2,0,2,3)
   ShowMessage("\\n<Sonya>Are you going to use that measurement Makina again?")
   0()
  Else()
   ShowMessageFace("ruka_fc1",0,0,2,4)
   ShowMessage("\\n<Luka>You intend to use that measurement Makina again...?")
   0()
  EndIf()
  ShowMessageFace("lusia_fc1",0,0,2,5)
  ShowMessage("\\n<Lucia>It'll be fine... Well then, I shall start the measurement.")
  ShowMessageFace("gnome_fc1",0,0,2,6)
  ShowMessage("\\n<Gnome>......")
  ShowMessageFace("lusia_fc1",0,0,2,7)
  ShowMessage("\\n<Lucia>Oh, I got a reaction right away. Let's send an interference wave now...")
  ShowMessageFace("lusia_fc1",0,0,2,8)
  ShowMessage("\\n<Lucia>Raising the interference signal... Two times... Four times... Eight times...")
  ShowMessageFace("gnome_fc1",0,0,2,9)
  ShowMessage("\\n<Gnome>......")
  ShowMessageFace("gnome_fc1",0,0,2,10)
  ShowMessage("\\n<Gnome>......")
  ShowMessageFace("gnome_fc1",1,0,2,11)
  ShowMessage("\\n<Gnome>......")
  250(bytes(0x04,0x08,0x6f,0x3a,0x0c,0x52,0x50,0x47,0x3a,0x3a,0x53,0x45,0x08,0x3a,0x0a,0x40,0x6e,0x61,0x6d,0x65,0x49,0x22,0x0f,0x6d,0x6f,0x6e,0x5f,0x65,0x61,0x72,0x74,0x68,0x31,0x06,0x3a,0x06,0x45,0x54,0x3a,0x0b,0x40,0x70,0x69,0x74,0x63,0x68,0x69,0x69,0x3a,0x0c,0x40,0x76,0x6f,0x6c,0x75,0x6d,0x65,0x69,0x69))
  225(7,7,180,false)
  If(0,6,0)
   ShowMessageFace("sonia_fc3",2,0,2,12)
   ShowMessage("\\n<Sonya>Hey! What's this?!")
   0()
  Else()
   ShowMessageFace("ruka_fc1",0,0,2,13)
   ShowMessage("\\n<Luka>Woah, what?!")
   0()
  EndIf()
  241(bytes(0x04,0x08,0x6f,0x3a,0x0d,0x52,0x50,0x47,0x3a,0x3a,0x42,0x47,0x4d,0x08,0x3a,0x0a,0x40,0x6e,0x61,0x6d,0x65,0x49,0x22,0x10,0x73,0x63,0x65,0x6e,0x65,0x5f,0x63,0x6f,0x6d,0x69,0x31,0x06,0x3a,0x06,0x45,0x54,0x3a,0x0c,0x40,0x76,0x6f,0x6c,0x75,0x6d,0x65,0x69,0x69,0x3a,0x0b,0x40,0x70,0x69,0x74,0x63,0x68,0x69,0x69))
  ShowMessageFace("lusia_fc1",2,0,2,14)
  ShowMessage("\\n<Lucia>T-this is strange... These readings are...")
  ShowMessageFace("gnome_fc1",0,0,2,15)
  ShowMessage("\\n<Gnome>......")
  ShowMessageFace("sylph_fc1",7,0,2,16)
  ShowMessage("\\n<Sylph>Grrrrr...")
  ShowMessageFace("lusia_fc1",0,0,2,17)
  ShowMessage("\\n<Lucia>Nevertheless, I managed to get good data on some extensive interference with the earth. I think I'll be able to apply this to my magical research.")
  318(0,167,0,3114)
  250(bytes(0x04,0x08,0x6f,0x3a,0x0c,0x52,0x50,0x47,0x3a,0x3a,0x53,0x45,0x08,0x3a,0x0a,0x40,0x6e,0x61,0x6d,0x65,0x49,0x22,0x0a,0x49,0x74,0x65,0x6d,0x31,0x06,0x3a,0x06,0x45,0x54,0x3a,0x0b,0x40,0x70,0x69,0x74,0x63,0x68,0x69,0x69,0x3a,0x0c,0x40,0x76,0x6f,0x6c,0x75,0x6d,0x65,0x69,0x55))
  ShowMessageFace("",0,0,2,18)
  ShowMessage("Lucia learned \\I[300]\\C[1]Breath of the Earth\\C[0]!")
  ShowMessageFace("lusia_fc1",2,0,2,19)
  ShowMessage("\\n<Lucia>As I thought, there are still many mysteries about the spirits. I need to gather more data of various kinds...")
  ShowMessageFace("lusia_fc1",0,0,2,20)
  ShowMessage("\\n<Lucia>Next, let's go to the water spirit Undine's habitat... Can you take me to Undine's Spring?")
  ShowMessageFace("sylph_fc1",7,0,2,21)
  ShowMessage("\\n<Sylph>Raripappa!")
  If(0,6,0)
   ShowMessageFace("sonia_fc2",2,0,2,22)
   ShowMessage("\\n<Sonya>(Sylph is acting weirder and weirder...)")
   0()
  Else()
   ShowMessageFace("ruka_fc1",0,0,2,23)
   ShowMessage("\\n<Luka>(Sylph is acting weird...)")
   0()
  EndIf()
  241(bytes(0x04,0x08,0x6f,0x3a,0x0d,0x52,0x50,0x47,0x3a,0x3a,0x42,0x47,0x4d,0x08,0x3a,0x0a,0x40,0x6e,0x61,0x6d,0x65,0x49,0x22,0x12,0x64,0x75,0x6e,0x67,0x65,0x6f,0x6e,0x5f,0x73,0x61,0x66,0x61,0x72,0x06,0x3a,0x06,0x45,0x54,0x3a,0x0c,0x40,0x76,0x6f,0x6c,0x75,0x6d,0x65,0x69,0x69,0x3a,0x0b,0x40,0x70,0x69,0x74,0x63,0x68,0x69,0x69))
  EndEventProcessing()
  0()
 PAGE   2
  // condition: variable 1047 >= 2
  0()



EVENT   16
 PAGE   1
  ShowMessageFace("doro_fc1",2,0,2,1)
  ShowMessage("\\n<Mud Doll>......")
  355("actor_label_jump")
  EndEventProcessing()
  DefineLabel("137")
  ShowMessageFace("braunys_fc1",6,0,2,2)
  ShowMessage("\\n<Love & Lamb>Mud Doll, are you preparing a bonfire?")
  ShowMessageFace("doro_fc1",2,0,2,3)
  ShowMessage("\\n<Mud Doll>......")
  ShowMessageFace("",0,0,2,4)
  ShowMessage("The Mud Doll nods repeatedly.")
  EndEventProcessing()
  0()



EVENT   17
 PAGE   1
  ShowMessageFace("doro_fc1",2,0,2,1)
  ShowMessage("\\n<Mud Doll>......")
  ShowMessageFace("",0,0,2,2)
  ShowMessage("The Mud Doll is digging a hole.")
  355("actor_label_jump")
  EndEventProcessing()
  DefineLabel("59")
  ShowMessageFace("mdg_fc1",0,0,2,3)
  ShowMessage("\\n<Ragora>What are you doing? You aren't burying yourself, are you?")
  EndEventProcessing()
  DefineLabel("61")
  ShowMessageFace("mimizu_fc1",1,0,2,4)
  ShowMessage("\\n<Mimi>Digging a hole? I'll help out too...")
  ShowMessageFace("",0,0,2,5)
  ShowMessage("Mimi and the Mud Doll are digging a hole...")
  EndEventProcessing()
  0()



EVENT   18
 PAGE   1
  // condition: switch 2114 is ON
  ChangeSelfSwitch("A",0)
  ChangeSwitch(35,35,1)
  222()
  Wait(15)
  ShowMessageFace("gnome_fc1",1,0,2,1)
  ShowMessage("\\n<Gnome>......")
  ShowMessageFace("sonia_fc2",2,0,2,2)
  ShowMessage("\\n<Sonya>I see... That must have been hard for you, Gnome.")
  ShowMessageFace("nuruko_fc1",2,0,2,3)
  ShowMessage("\\n<Nuruko>......")
  ShowMessageFace("nuruko_fc1",0,0,2,4)
  ShowMessage("\\n<Nuruko>Kyuu!")
  ShowMessageFace("",0,0,2,5)
  ShowMessage("Nuruko splits the chocolate cornet she has in two and holds out half to Gnome!")
  ShowMessageFace("gnome_fc1",0,0,2,6)
  ShowMessage("\\n<Gnome>......?")
  ShowMessageFace("nuruko_fc1",0,0,2,7)
  ShowMessage("\\n<Nuruko>Kyukyukyuuuukyuu!")
  ShowMessageFace("sonia_fc1",4,0,2,8)
  ShowMessage("\\n<Sonya>'I'll be your friend. You won't be lonely any more.' She says.")
  ShowMessageFace("gnome_fc1",0,0,2,9)
  ShowMessage("\\n<Gnome>......")
  ShowMessageFace("sylph_fc1",1,0,2,10)
  ShowMessage("\\n<Sylph>'Thank you, that makes me really happy...' She says.")
  ShowMessageFace("nuruko_fc1",0,0,2,11)
  ShowMessage("\\n<Nuruko>Kyukyu!")
  ShowMessageFace("gnome_fc1",0,0,2,12)
  ShowMessage("\\n<Gnome>......")
  ShowMessageFace("",0,0,2,13)
  ShowMessage("Gnome and Nuruko eat the chocolate cornet together... and became friends!")
  ShowMessageFace("nuruko_fc1",0,0,2,14)
  ShowMessage("\\n<Nuruko>Kyukyukyuu!")
  ShowMessageFace("sonia_fc1",0,0,2,15)
  ShowMessage("\\n<Sonya>'Let's go climb trees together right now.' She says.")
  ShowMessageFace("gnome_fc1",0,0,2,16)
  ShowMessage("\\n<Gnome>......")
  ShowMessageFace("sylph_fc1",1,0,2,17)
  ShowMessage("\\n<Sylph>'I won't lose when it comes to climbing trees! You're on!' she says.")
  ShowMessageFace("ruka_fc1",0,0,2,18)
  ShowMessage("\\n<Luka>(They're friends, yet they need interpreters...)")
  355("gain_medal(2011)")
  0()
 PAGE   2
  // condition: self-switch A is ON
  0()



EVENT   19
 PAGE   1
  If(0,2114,1)
   If(0,6,0)
    ShowMessageFace("sonia_fc2",2,0,2,1)
    ShowMessage("\\n<Sonya>Why is there a grave in a place like this...?")
    0()
   Else()
    ShowMessageFace("ruka_fc1",0,0,2,2)
    ShowMessage("\\n<Luka>Why is there a grave in a place like this?")
    0()
   EndIf()
   If(4,12,0)
    ShowMessageFace("sylph_fc1",1,0,2,3)
    ShowMessage("\\n<Sylph>Gnomey probably knows...")
    0()
   EndIf()
   If(0,6,0)
    If(0,1013,0)
     If(0,1013,0)
      If(0,1079,0)
       ChangeSwitch(2114,2114,0)
       ShowMessageFace("nuruko_fc1",0,0,2,4)
       ShowMessage("\\n<Nuruko>...Kyu?")
       ShowMessageFace("gnome_fc1",0,0,2,5)
       ShowMessage("\\n<Gnome>......")
       ShowMessageFace("sylph_fc1",1,0,2,6)
       ShowMessage("\\n<Sylph>Um, I'll translate. Gnomey lived here for a long, long time...")
       221()
       Wait(60)
       211(0)
       241(bytes(0x04,0x08,0x6f,0x3a,0x0d,0x52,0x50,0x47,0x3a,0x3a,0x42,0x47,0x4d,0x08,0x3a,0x0a,0x40,0x6e,0x61,0x6d,0x65,0x49,0x22,0x14,0x73,0x63,0x65,0x6e,0x65,0x5f,0x6b,0x61,0x6e,0x61,0x73,0x69,0x6d,0x69,0x33,0x06,0x3a,0x06,0x45,0x54,0x3a,0x0c,0x40,0x76,0x6f,0x6c,0x75,0x6d,0x65,0x69,0x69,0x3a,0x0b,0x40,0x70,0x69,0x74,0x63,0x68,0x69,0x69))
       ChangeSwitch(31,31,0)
       ChangeSwitch(32,32,1)
       ChangeSwitch(33,33,1)
       ChangeSwitch(34,34,1)
       ChangeSwitch(35,35,1)
       TeleportPlayer(0,635,1,0,0,0)
       0()
      EndIf()
      0()
     EndIf()
     0()
    EndIf()
    0()
   EndIf()
   EndEventProcessing()
   0()
  Else()
   ShowMessageFace("gnome_fc1",1,0,2,7)
   ShowMessage("\\n<Gnome>......")
   EndEventProcessing()
   0()
  EndIf()
  0()



EVENT   20
 PAGE   1
  // condition: switch 1013 is ON
  // condition: party contains actor #99
  ChangeSwitch(2142,2142,0)
  ShowMessageFace("namazu_fc1",0,0,2,1)
  ShowMessage("\\n<Gigi>Mmm, I can feel the earth energy... My barbels are twitching.")
  ShowMessageFace("namazu_fc1",0,0,2,2)
  ShowMessage("\\n<Gigi>I'm but a humble catfish, but I can already use the power of earth.")
  ShowMessageFace("namazu_fc1",0,0,2,3)
  ShowMessage("\\n<Gigi>However, the elements are something that circulates. If I took some of this earth energy and...")
  318(0,99,0,3032)
  250(bytes(0x04,0x08,0x6f,0x3a,0x0c,0x52,0x50,0x47,0x3a,0x3a,0x53,0x45,0x08,0x3a,0x0a,0x40,0x6e,0x61,0x6d,0x65,0x49,0x22,0x0a,0x49,0x74,0x65,0x6d,0x31,0x06,0x3a,0x06,0x45,0x54,0x3a,0x0b,0x40,0x70,0x69,0x74,0x63,0x68,0x69,0x69,0x3a,0x0c,0x40,0x76,0x6f,0x6c,0x75,0x6d,0x65,0x69,0x55))
  ShowMessageFace("",0,0,2,4)
  ShowMessage("Gigi learned \\I[157]\\C[1]Icicle\\C[0]!")
  318(0,99,0,3035)
  250(bytes(0x04,0x08,0x6f,0x3a,0x0c,0x52,0x50,0x47,0x3a,0x3a,0x53,0x45,0x08,0x3a,0x0a,0x40,0x6e,0x61,0x6d,0x65,0x49,0x22,0x0a,0x49,0x74,0x65,0x6d,0x31,0x06,0x3a,0x06,0x45,0x54,0x3a,0x0b,0x40,0x70,0x69,0x74,0x63,0x68,0x69,0x69,0x3a,0x0c,0x40,0x76,0x6f,0x6c,0x75,0x6d,0x65,0x69,0x55))
  ShowMessageFace("",0,0,2,5)
  ShowMessage("Gigi learned \\I[157]\\C[1]Lightning\\C[0]!")
  ShowMessageFace("namazu_fc1",0,0,2,6)
  ShowMessage("\\n<Gigi>Well, something like that! Impressed?")
  ShowMessageFace("namazu_fc1",0,0,2,7)
  ShowMessage("\\n<Gigi>Now then, shall we go?")
  EndEventProcessing()
  0()
 PAGE   2
  // condition: switch 2142 is ON
  0()
